{
    "10": {
        "chance": 9.5367431640625e-06,
        "chance+": 1.0,
        "chance-": 9.5367431640625e-06,
        "num_of_totals": 10
    },
    "11": {
        "chance": 5.245208740234375e-05,
        "chance+": 0.9999904632568359,
        "chance-": 6.198883056640625e-05,
        "num_of_totals": 55
    },
    "12": {
        "chance": 0.000209808349609375,
        "chance+": 0.9999380111694336,
        "chance-": 0.00027179718017578125,
        "num_of_totals": 220
    },
    "13": {
        "chance": 0.0006723403930664062,
        "chance+": 0.9997282028198242,
        "chance-": 0.0009441375732421875,
        "num_of_totals": 705
    },
    "14": {
        "chance": 0.0018138885498046875,
        "chance+": 0.9990558624267578,
        "chance-": 0.002758026123046875,
        "num_of_totals": 1902
    },
    "15": {
        "chance": 0.004248619079589844,
        "chance+": 0.9972419738769531,
        "chance-": 0.007006645202636719,
        "num_of_totals": 4455
    },
    "16": {
        "chance": 0.00881195068359375,
        "chance+": 0.9929933547973633,
        "chance-": 0.01581859588623047,
        "num_of_totals": 9240
    },
    "17": {
        "chance": 0.01640796661376953,
        "chance+": 0.9841814041137695,
        "chance-": 0.0322265625,
        "num_of_totals": 17205
    },
    "18": {
        "chance": 0.02770519256591797,
        "chance+": 0.9677734375,
        "chance-": 0.05993175506591797,
        "num_of_totals": 29051
    },
    "19": {
        "chance": 0.042736053466796875,
        "chance+": 0.940068244934082,
        "chance-": 0.10266780853271484,
        "num_of_totals": 44812
    },
    "20": {
        "chance": 0.060563087463378906,
        "chance+": 0.8973321914672852,
        "chance-": 0.16323089599609375,
        "num_of_totals": 63505
    },
    "21": {
        "chance": 0.079193115234375,
        "chance+": 0.8367691040039062,
        "chance-": 0.24242401123046875,
        "num_of_totals": 83040
    },
    "22": {
        "chance": 0.09585857391357422,
        "chance+": 0.7575759887695312,
        "chance-": 0.33828258514404297,
        "num_of_totals": 100515
    },
    "23": {
        "chance": 0.10764312744140625,
        "chance+": 0.661717414855957,
        "chance-": 0.4459257125854492,
        "num_of_totals": 112872
    },
    "24": {
        "chance": 0.11224937438964844,
        "chance+": 0.5540742874145508,
        "chance-": 0.5581750869750977,
        "num_of_totals": 117702
    },
    "25": {
        "chance": 0.10864734649658203,
        "chance+": 0.44182491302490234,
        "chance-": 0.6668224334716797,
        "num_of_totals": 113925
    },
    "26": {
        "chance": 0.09740352630615234,
        "chance+": 0.3331775665283203,
        "chance-": 0.764225959777832,
        "num_of_totals": 102135
    },
    "27": {
        "chance": 0.08055782318115234,
        "chance+": 0.23577404022216797,
        "chance-": 0.8447837829589844,
        "num_of_totals": 84471
    },
    "28": {
        "chance": 0.06110382080078125,
        "chance+": 0.15521621704101562,
        "chance-": 0.9058876037597656,
        "num_of_totals": 64072
    },
    "29": {
        "chance": 0.04218578338623047,
        "chance+": 0.09411239624023438,
        "chance-": 0.9480733871459961,
        "num_of_totals": 44235
    },
    "30": {
        "chance": 0.026264190673828125,
        "chance+": 0.051926612854003906,
        "chance-": 0.9743375778198242,
        "num_of_totals": 27540
    },
    "31": {
        "chance": 0.014562606811523438,
        "chance+": 0.02566242218017578,
        "chance-": 0.9889001846313477,
        "num_of_totals": 15270
    },
    "32": {
        "chance": 0.007049560546875,
        "chance+": 0.011099815368652344,
        "chance-": 0.9959497451782227,
        "num_of_totals": 7392
    },
    "33": {
        "chance": 0.0028753280639648438,
        "chance+": 0.004050254821777344,
        "chance-": 0.9988250732421875,
        "num_of_totals": 3015
    },
    "34": {
        "chance": 0.0009298324584960938,
        "chance+": 0.0011749267578125,
        "chance-": 0.9997549057006836,
        "num_of_totals": 975
    },
    "35": {
        "chance": 0.00021457672119140625,
        "chance+": 0.00024509429931640625,
        "chance-": 0.999969482421875,
        "num_of_totals": 225
    },
    "36": {
        "chance": 2.956390380859375e-05,
        "chance+": 3.0517578125e-05,
        "chance-": 0.9999990463256836,
        "num_of_totals": 31
    },
    "9": {
        "chance": 9.5367431640625e-07,
        "chance+": 9.5367431640625e-07,
        "chance-": 1.0,
        "num_of_totals": 1
    }
}