{
    "10": {
        "chance": 0.10567188262939453,
        "chance+": 1.0,
        "chance-": 0.10567188262939453,
        "num_of_totals": 110805
    },
    "11": {
        "chance": 0.06653308868408203,
        "chance+": 0.8943281173706055,
        "chance-": 0.17220497131347656,
        "num_of_totals": 69765
    },
    "12": {
        "chance": 0.036678314208984375,
        "chance+": 0.8277950286865234,
        "chance-": 0.20888328552246094,
        "num_of_totals": 38460
    },
    "13": {
        "chance": 0.01693248748779297,
        "chance+": 0.7911167144775391,
        "chance-": 0.2258157730102539,
        "num_of_totals": 17755
    },
    "14": {
        "chance": 0.006489753723144531,
        "chance+": 0.7741842269897461,
        "chance-": 0.23230552673339844,
        "num_of_totals": 6805
    },
    "15": {
        "chance": 0.0021820068359375,
        "chance+": 0.7676944732666016,
        "chance-": 0.23448753356933594,
        "num_of_totals": 2288
    },
    "16": {
        "chance": 0.0006723403930664062,
        "chance+": 0.7655124664306641,
        "chance-": 0.23515987396240234,
        "num_of_totals": 705
    },
    "17": {
        "chance": 0.000209808349609375,
        "chance+": 0.7648401260375977,
        "chance-": 0.23536968231201172,
        "num_of_totals": 220
    },
    "18": {
        "chance": 5.245208740234375e-05,
        "chance+": 0.7646303176879883,
        "chance-": 0.23542213439941406,
        "num_of_totals": 55
    },
    "19": {
        "chance": 9.5367431640625e-06,
        "chance+": 0.7645778656005859,
        "chance-": 0.23543167114257812,
        "num_of_totals": 10
    },
    "20": {
        "chance": 9.5367431640625e-07,
        "chance+": 0.7645683288574219,
        "chance-": 0.23543262481689453,
        "num_of_totals": 1
    },
    "5": {
        "chance": 0.07812690734863281,
        "chance+": 0.7645673751831055,
        "chance-": 0.31355953216552734,
        "num_of_totals": 81922
    },
    "6": {
        "chance": 0.1331806182861328,
        "chance+": 0.6864404678344727,
        "chance-": 0.44674015045166016,
        "num_of_totals": 139650
    },
    "7": {
        "chance": 0.19698143005371094,
        "chance+": 0.5532598495483398,
        "chance-": 0.6437215805053711,
        "num_of_totals": 206550
    },
    "8": {
        "chance": 0.20040035247802734,
        "chance+": 0.3562784194946289,
        "chance-": 0.8441219329833984,
        "num_of_totals": 210135
    },
    "9": {
        "chance": 0.15587806701660156,
        "chance+": 0.15587806701660156,
        "chance-": 1.0,
        "num_of_totals": 163450
    }
}