{
    "10": {
        "chance": 0.14090884464067976,
        "chance+": 0.9999999999999999,
        "chance-": 0.14090884464067976,
        "num_of_totals": 8520219
    },
    "11": {
        "chance": 0.2796573409901099,
        "chance+": 0.8590911553593201,
        "chance-": 0.4205661856307897,
        "num_of_totals": 16909810
    },
    "12": {
        "chance": 0.5154832513304628,
        "chance+": 0.5794338143692103,
        "chance-": 0.9360494369612524,
        "num_of_totals": 31169301
    },
    "2": {
        "chance": 1.65381716879202e-08,
        "chance+": 0.06395056303874748,
        "chance-": 0.9360494534994241,
        "num_of_totals": 1
    },
    "3": {
        "chance": 1.65381716879202e-07,
        "chance+": 0.06395054650057579,
        "chance-": 0.936049618881141,
        "num_of_totals": 10
    },
    "4": {
        "chance": 1.6918549636742366e-05,
        "chance+": 0.06395038111885891,
        "chance-": 0.9360665374307777,
        "num_of_totals": 1023
    },
    "5": {
        "chance": 8.467543904215143e-05,
        "chance+": 0.06393346256922217,
        "chance-": 0.9361512128698198,
        "num_of_totals": 5120
    },
    "6": {
        "chance": 0.0009596274121915697,
        "chance+": 0.06384878713018001,
        "chance-": 0.9371108402820114,
        "num_of_totals": 58025
    },
    "7": {
        "chance": 0.0032552083333333335,
        "chance+": 0.06288915971798845,
        "chance-": 0.9403660486153448,
        "num_of_totals": 196830
    },
    "8": {
        "chance": 0.016364802034115736,
        "chance+": 0.05963395138465512,
        "chance-": 0.9567308506494605,
        "num_of_totals": 989517
    },
    "9": {
        "chance": 0.04326914935053938,
        "chance+": 0.04326914935053938,
        "chance-": 0.9999999999999999,
        "num_of_totals": 2616320
    }
}