{
    "1": {
        "chance": 1.65381716879202e-08,
        "chance+": 1.0,
        "chance-": 1.65381716879202e-08,
        "num_of_totals": 1
    },
    "2": {
        "chance": 1.6918549636742366e-05,
        "chance+": 0.9999999834618283,
        "chance-": 1.6935087808430286e-05,
        "num_of_totals": 1023
    },
    "3": {
        "chance": 0.0009596274121915697,
        "chance+": 0.9999830649121916,
        "chance-": 0.0009765625,
        "num_of_totals": 58025
    },
    "4": {
        "chance": 0.016364967415832612,
        "chance+": 0.9990234375,
        "chance-": 0.017341529915832612,
        "num_of_totals": 989527
    },
    "5": {
        "chance": 0.1441640529740131,
        "chance+": 0.9826584700841674,
        "chance-": 0.16150558288984573,
        "num_of_totals": 8717049
    },
    "6": {
        "chance": 0.8384944171101543,
        "chance+": 0.8384944171101543,
        "chance-": 1.0,
        "num_of_totals": 50700551
    }
}