{
    "1": {
        "chance": 0.5,
        "chance+": 1.0,
        "chance-": 0.5,
        "num_of_totals": 1
    },
    "2": {
        "chance": 0.5,
        "chance+": 0.5,
        "chance-": 1.0,
        "num_of_totals": 1
    }
}