{
    "1": {
        "chance": 0.75,
        "chance+": 1.0,
        "chance-": 0.75,
        "num_of_totals": 3
    },
    "2": {
        "chance": 0.25,
        "chance+": 0.25,
        "chance-": 1.0,
        "num_of_totals": 1
    }
}