{
    "2": {
        "chance": 0.0625,
        "chance+": 1.0,
        "chance-": 0.0625,
        "num_of_totals": 1
    },
    "3": {
        "chance": 0.125,
        "chance+": 0.9375,
        "chance-": 0.1875,
        "num_of_totals": 2
    },
    "4": {
        "chance": 0.1875,
        "chance+": 0.8125,
        "chance-": 0.375,
        "num_of_totals": 3
    },
    "5": {
        "chance": 0.25,
        "chance+": 0.625,
        "chance-": 0.625,
        "num_of_totals": 4
    },
    "6": {
        "chance": 0.1875,
        "chance+": 0.375,
        "chance-": 0.8125,
        "num_of_totals": 3
    },
    "7": {
        "chance": 0.125,
        "chance+": 0.1875,
        "chance-": 0.9375,
        "num_of_totals": 2
    },
    "8": {
        "chance": 0.0625,
        "chance+": 0.0625,
        "chance-": 1.0,
        "num_of_totals": 1
    }
}