{
    "1": {
        "chance": 0.027777777777777776,
        "chance+": 1.0,
        "chance-": 0.027777777777777776,
        "num_of_totals": 1
    },
    "2": {
        "chance": 0.08333333333333333,
        "chance+": 0.9722222222222222,
        "chance-": 0.1111111111111111,
        "num_of_totals": 3
    },
    "3": {
        "chance": 0.1388888888888889,
        "chance+": 0.8888888888888888,
        "chance-": 0.25,
        "num_of_totals": 5
    },
    "4": {
        "chance": 0.19444444444444445,
        "chance+": 0.75,
        "chance-": 0.4444444444444444,
        "num_of_totals": 7
    },
    "5": {
        "chance": 0.25,
        "chance+": 0.5555555555555556,
        "chance-": 0.6944444444444444,
        "num_of_totals": 9
    },
    "6": {
        "chance": 0.3055555555555556,
        "chance+": 0.3055555555555556,
        "chance-": 1.0,
        "num_of_totals": 11
    }
}