{
    "1": {
        "chance": 0.001953125,
        "chance+": 1.0,
        "chance-": 0.001953125,
        "num_of_totals": 1
    },
    "2": {
        "chance": 0.013671875,
        "chance+": 0.998046875,
        "chance-": 0.015625,
        "num_of_totals": 7
    },
    "3": {
        "chance": 0.037109375,
        "chance+": 0.984375,
        "chance-": 0.052734375,
        "num_of_totals": 19
    },
    "4": {
        "chance": 0.072265625,
        "chance+": 0.947265625,
        "chance-": 0.125,
        "num_of_totals": 37
    },
    "5": {
        "chance": 0.119140625,
        "chance+": 0.875,
        "chance-": 0.244140625,
        "num_of_totals": 61
    },
    "6": {
        "chance": 0.177734375,
        "chance+": 0.755859375,
        "chance-": 0.421875,
        "num_of_totals": 91
    },
    "7": {
        "chance": 0.248046875,
        "chance+": 0.578125,
        "chance-": 0.669921875,
        "num_of_totals": 127
    },
    "8": {
        "chance": 0.330078125,
        "chance+": 0.330078125,
        "chance-": 1.0,
        "num_of_totals": 169
    }
}