{
    "2": {
        "chance": 0.012345679012345678,
        "chance+": 1.0,
        "chance-": 0.012345679012345678,
        "num_of_totals": 1
    },
    "3": {
        "chance": 0.04938271604938271,
        "chance+": 0.9876543209876543,
        "chance-": 0.06172839506172839,
        "num_of_totals": 4
    },
    "4": {
        "chance": 0.18518518518518517,
        "chance+": 0.9382716049382716,
        "chance-": 0.24691358024691357,
        "num_of_totals": 15
    },
    "5": {
        "chance": 0.345679012345679,
        "chance+": 0.7530864197530864,
        "chance-": 0.5925925925925926,
        "num_of_totals": 28
    },
    "6": {
        "chance": 0.4074074074074074,
        "chance+": 0.4074074074074074,
        "chance-": 1.0,
        "num_of_totals": 33
    }
}