{
    "1": {
        "chance": 0.00390625,
        "chance+": 1.0,
        "chance-": 0.00390625,
        "num_of_totals": 1
    },
    "2": {
        "chance": 0.05859375,
        "chance+": 0.99609375,
        "chance-": 0.0625,
        "num_of_totals": 15
    },
    "3": {
        "chance": 0.25390625,
        "chance+": 0.9375,
        "chance-": 0.31640625,
        "num_of_totals": 65
    },
    "4": {
        "chance": 0.68359375,
        "chance+": 0.68359375,
        "chance-": 1.0,
        "num_of_totals": 175
    }
}