{
    "2": {
        "chance": 0.0009765625,
        "chance+": 1.0,
        "chance-": 0.0009765625,
        "num_of_totals": 1
    },
    "3": {
        "chance": 0.0048828125,
        "chance+": 0.9990234375,
        "chance-": 0.005859375,
        "num_of_totals": 5
    },
    "4": {
        "chance": 0.0302734375,
        "chance+": 0.994140625,
        "chance-": 0.0361328125,
        "num_of_totals": 31
    },
    "5": {
        "chance": 0.078125,
        "chance+": 0.9638671875,
        "chance-": 0.1142578125,
        "num_of_totals": 80
    },
    "6": {
        "chance": 0.201171875,
        "chance+": 0.8857421875,
        "chance-": 0.3154296875,
        "num_of_totals": 206
    },
    "7": {
        "chance": 0.3173828125,
        "chance+": 0.6845703125,
        "chance-": 0.6328125,
        "num_of_totals": 325
    },
    "8": {
        "chance": 0.3671875,
        "chance+": 0.3671875,
        "chance-": 1.0,
        "num_of_totals": 376
    }
}