{
    "10": {
        "chance": 0.06396484375,
        "chance+": 1.0,
        "chance-": 0.06396484375,
        "num_of_totals": 2096
    },
    "11": {
        "chance": 0.092926025390625,
        "chance+": 0.93603515625,
        "chance-": 0.156890869140625,
        "num_of_totals": 3045
    },
    "12": {
        "chance": 0.12957763671875,
        "chance+": 0.843109130859375,
        "chance-": 0.286468505859375,
        "num_of_totals": 4246
    },
    "13": {
        "chance": 0.15869140625,
        "chance+": 0.713531494140625,
        "chance-": 0.445159912109375,
        "num_of_totals": 5200
    },
    "14": {
        "chance": 0.18023681640625,
        "chance+": 0.554840087890625,
        "chance-": 0.625396728515625,
        "num_of_totals": 5906
    },
    "15": {
        "chance": 0.168609619140625,
        "chance+": 0.374603271484375,
        "chance-": 0.79400634765625,
        "num_of_totals": 5525
    },
    "16": {
        "chance": 0.1207275390625,
        "chance+": 0.20599365234375,
        "chance-": 0.91473388671875,
        "num_of_totals": 3956
    },
    "2": {
        "chance": 3.0517578125e-05,
        "chance+": 0.08526611328125,
        "chance-": 0.914764404296875,
        "num_of_totals": 1
    },
    "3": {
        "chance": 0.000152587890625,
        "chance+": 0.085235595703125,
        "chance-": 0.9149169921875,
        "num_of_totals": 5
    },
    "4": {
        "chance": 0.000946044921875,
        "chance+": 0.0850830078125,
        "chance-": 0.915863037109375,
        "num_of_totals": 31
    },
    "5": {
        "chance": 0.00244140625,
        "chance+": 0.084136962890625,
        "chance-": 0.918304443359375,
        "num_of_totals": 80
    },
    "6": {
        "chance": 0.006439208984375,
        "chance+": 0.081695556640625,
        "chance-": 0.92474365234375,
        "num_of_totals": 211
    },
    "7": {
        "chance": 0.012359619140625,
        "chance+": 0.07525634765625,
        "chance-": 0.937103271484375,
        "num_of_totals": 405
    },
    "8": {
        "chance": 0.023834228515625,
        "chance+": 0.062896728515625,
        "chance-": 0.9609375,
        "num_of_totals": 781
    },
    "9": {
        "chance": 0.0390625,
        "chance+": 0.0390625,
        "chance-": 1.0,
        "num_of_totals": 1280
    }
}