{
    "10": {
        "chance": 0.049591064453125,
        "chance+": 1.0,
        "chance-": 0.049591064453125,
        "num_of_totals": 1625
    },
    "11": {
        "chance": 0.061187744140625,
        "chance+": 0.950408935546875,
        "chance-": 0.11077880859375,
        "num_of_totals": 2005
    },
    "12": {
        "chance": 0.0712890625,
        "chance+": 0.88922119140625,
        "chance-": 0.18206787109375,
        "num_of_totals": 2336
    },
    "13": {
        "chance": 0.078887939453125,
        "chance+": 0.81793212890625,
        "chance-": 0.260955810546875,
        "num_of_totals": 2585
    },
    "14": {
        "chance": 0.083465576171875,
        "chance+": 0.739044189453125,
        "chance-": 0.34442138671875,
        "num_of_totals": 2735
    },
    "15": {
        "chance": 0.084686279296875,
        "chance+": 0.65557861328125,
        "chance-": 0.429107666015625,
        "num_of_totals": 2775
    },
    "16": {
        "chance": 0.08258056640625,
        "chance+": 0.570892333984375,
        "chance-": 0.511688232421875,
        "num_of_totals": 2706
    },
    "17": {
        "chance": 0.077362060546875,
        "chance+": 0.488311767578125,
        "chance-": 0.58905029296875,
        "num_of_totals": 2535
    },
    "18": {
        "chance": 0.069732666015625,
        "chance+": 0.41094970703125,
        "chance-": 0.658782958984375,
        "num_of_totals": 2285
    },
    "19": {
        "chance": 0.0604248046875,
        "chance+": 0.341217041015625,
        "chance-": 0.719207763671875,
        "num_of_totals": 1980
    },
    "20": {
        "chance": 0.050384521484375,
        "chance+": 0.280792236328125,
        "chance-": 0.76959228515625,
        "num_of_totals": 1651
    },
    "21": {
        "chance": 0.040435791015625,
        "chance+": 0.23040771484375,
        "chance-": 0.810028076171875,
        "num_of_totals": 1325
    },
    "22": {
        "chance": 0.0311279296875,
        "chance+": 0.189971923828125,
        "chance-": 0.841156005859375,
        "num_of_totals": 1020
    },
    "23": {
        "chance": 0.02288818359375,
        "chance+": 0.158843994140625,
        "chance-": 0.864044189453125,
        "num_of_totals": 750
    },
    "24": {
        "chance": 0.01605224609375,
        "chance+": 0.135955810546875,
        "chance-": 0.880096435546875,
        "num_of_totals": 526
    },
    "25": {
        "chance": 0.01068115234375,
        "chance+": 0.119903564453125,
        "chance-": 0.890777587890625,
        "num_of_totals": 350
    },
    "26": {
        "chance": 0.0067138671875,
        "chance+": 0.109222412109375,
        "chance-": 0.897491455078125,
        "num_of_totals": 220
    },
    "27": {
        "chance": 0.00396728515625,
        "chance+": 0.102508544921875,
        "chance-": 0.901458740234375,
        "num_of_totals": 130
    },
    "28": {
        "chance": 0.002166748046875,
        "chance+": 0.098541259765625,
        "chance-": 0.90362548828125,
        "num_of_totals": 71
    },
    "29": {
        "chance": 0.001068115234375,
        "chance+": 0.09637451171875,
        "chance-": 0.904693603515625,
        "num_of_totals": 35
    },
    "30": {
        "chance": 0.000457763671875,
        "chance+": 0.095306396484375,
        "chance-": 0.9051513671875,
        "num_of_totals": 15
    },
    "31": {
        "chance": 0.000152587890625,
        "chance+": 0.0948486328125,
        "chance-": 0.905303955078125,
        "num_of_totals": 5
    },
    "32": {
        "chance": 3.0517578125e-05,
        "chance+": 0.094696044921875,
        "chance-": 0.90533447265625,
        "num_of_totals": 1
    },
    "4": {
        "chance": 0.0010986328125,
        "chance+": 0.09466552734375,
        "chance-": 0.90643310546875,
        "num_of_totals": 36
    },
    "5": {
        "chance": 0.00396728515625,
        "chance+": 0.09356689453125,
        "chance-": 0.910400390625,
        "num_of_totals": 130
    },
    "6": {
        "chance": 0.0091552734375,
        "chance+": 0.089599609375,
        "chance-": 0.9195556640625,
        "num_of_totals": 300
    },
    "7": {
        "chance": 0.016632080078125,
        "chance+": 0.0804443359375,
        "chance-": 0.936187744140625,
        "num_of_totals": 545
    },
    "8": {
        "chance": 0.026275634765625,
        "chance+": 0.063812255859375,
        "chance-": 0.96246337890625,
        "num_of_totals": 861
    },
    "9": {
        "chance": 0.03753662109375,
        "chance+": 0.03753662109375,
        "chance-": 1.0,
        "num_of_totals": 1230
    }
}