{
    "10": {
        "chance": 0.234375,
        "chance+": 1.0,
        "chance-": 0.234375,
        "num_of_totals": 15
    },
    "11": {
        "chance": 0.09375,
        "chance+": 0.765625,
        "chance-": 0.328125,
        "num_of_totals": 6
    },
    "12": {
        "chance": 0.015625,
        "chance+": 0.671875,
        "chance-": 0.34375,
        "num_of_totals": 1
    },
    "6": {
        "chance": 0.015625,
        "chance+": 0.65625,
        "chance-": 0.359375,
        "num_of_totals": 1
    },
    "7": {
        "chance": 0.09375,
        "chance+": 0.640625,
        "chance-": 0.453125,
        "num_of_totals": 6
    },
    "8": {
        "chance": 0.234375,
        "chance+": 0.546875,
        "chance-": 0.6875,
        "num_of_totals": 15
    },
    "9": {
        "chance": 0.3125,
        "chance+": 0.3125,
        "chance-": 1.0,
        "num_of_totals": 20
    }
}