{
    "3": {
        "chance": 0.015625,
        "chance+": 1.0,
        "chance-": 0.015625,
        "num_of_totals": 1
    },
    "4": {
        "chance": 0.09375,
        "chance+": 0.984375,
        "chance-": 0.109375,
        "num_of_totals": 6
    },
    "5": {
        "chance": 0.234375,
        "chance+": 0.890625,
        "chance-": 0.34375,
        "num_of_totals": 15
    },
    "6": {
        "chance": 0.65625,
        "chance+": 0.65625,
        "chance-": 1.0,
        "num_of_totals": 42
    }
}