{
    "3": {
        "chance": 0.3196159122085048,
        "chance+": 1.0,
        "chance-": 0.3196159122085048,
        "num_of_totals": 233
    },
    "4": {
        "chance": 0.30864197530864196,
        "chance+": 0.6803840877914952,
        "chance-": 0.6282578875171467,
        "num_of_totals": 225
    },
    "5": {
        "chance": 0.2345679012345679,
        "chance+": 0.3717421124828532,
        "chance-": 0.8628257887517146,
        "num_of_totals": 171
    },
    "6": {
        "chance": 0.09876543209876543,
        "chance+": 0.13717421124828533,
        "chance-": 0.96159122085048,
        "num_of_totals": 72
    },
    "7": {
        "chance": 0.02880658436213992,
        "chance+": 0.038408779149519894,
        "chance-": 0.9903978052126199,
        "num_of_totals": 21
    },
    "8": {
        "chance": 0.00823045267489712,
        "chance+": 0.009602194787379973,
        "chance-": 0.998628257887517,
        "num_of_totals": 6
    },
    "9": {
        "chance": 0.0013717421124828531,
        "chance+": 0.0013717421124828531,
        "chance-": 0.9999999999999998,
        "num_of_totals": 1
    }
}