{
    "2": {
        "chance": 0.000244140625,
        "chance+": 1.0,
        "chance-": 0.000244140625,
        "num_of_totals": 1
    },
    "3": {
        "chance": 0.00146484375,
        "chance+": 0.999755859375,
        "chance-": 0.001708984375,
        "num_of_totals": 6
    },
    "4": {
        "chance": 0.015380859375,
        "chance+": 0.998291015625,
        "chance-": 0.01708984375,
        "num_of_totals": 63
    },
    "5": {
        "chance": 0.046875,
        "chance+": 0.98291015625,
        "chance-": 0.06396484375,
        "num_of_totals": 192
    },
    "6": {
        "chance": 0.160888671875,
        "chance+": 0.93603515625,
        "chance-": 0.224853515625,
        "num_of_totals": 659
    },
    "7": {
        "chance": 0.30908203125,
        "chance+": 0.775146484375,
        "chance-": 0.533935546875,
        "num_of_totals": 1266
    },
    "8": {
        "chance": 0.466064453125,
        "chance+": 0.466064453125,
        "chance-": 1.0,
        "num_of_totals": 1909
    }
}