{
    "10": {
        "chance": 0.04265260631001372,
        "chance+": 1.0,
        "chance-": 0.04265260631001372,
        "num_of_totals": 1990
    },
    "11": {
        "chance": 0.0589420438957476,
        "chance+": 0.9573473936899863,
        "chance-": 0.10159465020576132,
        "num_of_totals": 2750
    },
    "12": {
        "chance": 0.07469564471879286,
        "chance+": 0.8984053497942387,
        "chance-": 0.17629029492455417,
        "num_of_totals": 3485
    },
    "13": {
        "chance": 0.08800582990397805,
        "chance+": 0.8237097050754458,
        "chance-": 0.2642961248285322,
        "num_of_totals": 4106
    },
    "14": {
        "chance": 0.09700788751714677,
        "chance+": 0.7357038751714677,
        "chance-": 0.361304012345679,
        "num_of_totals": 4526
    },
    "15": {
        "chance": 0.10050154320987655,
        "chance+": 0.638695987654321,
        "chance-": 0.4618055555555555,
        "num_of_totals": 4689
    },
    "16": {
        "chance": 0.09816529492455418,
        "chance+": 0.5381944444444444,
        "chance-": 0.5599708504801097,
        "num_of_totals": 4580
    },
    "17": {
        "chance": 0.0905778463648834,
        "chance+": 0.44002914951989025,
        "chance-": 0.6505486968449932,
        "num_of_totals": 4226
    },
    "18": {
        "chance": 0.07900377229080932,
        "chance+": 0.34945130315500683,
        "chance-": 0.7295524691358025,
        "num_of_totals": 3686
    },
    "19": {
        "chance": 0.06517918381344308,
        "chance+": 0.27044753086419754,
        "chance-": 0.7947316529492456,
        "num_of_totals": 3041
    },
    "20": {
        "chance": 0.05075445816186557,
        "chance+": 0.20526834705075445,
        "chance-": 0.8454861111111112,
        "num_of_totals": 2368
    },
    "21": {
        "chance": 0.03720850480109739,
        "chance+": 0.15451388888888887,
        "chance-": 0.8826946159122085,
        "num_of_totals": 1736
    },
    "22": {
        "chance": 0.02563443072702332,
        "chance+": 0.11730538408779148,
        "chance-": 0.9083290466392319,
        "num_of_totals": 1196
    },
    "23": {
        "chance": 0.016525205761316872,
        "chance+": 0.09167095336076816,
        "chance-": 0.9248542524005487,
        "num_of_totals": 771
    },
    "24": {
        "chance": 0.009880829903978053,
        "chance+": 0.07514574759945129,
        "chance-": 0.9347350823045268,
        "num_of_totals": 461
    },
    "25": {
        "chance": 0.005422668038408779,
        "chance+": 0.06526491769547324,
        "chance-": 0.9401577503429356,
        "num_of_totals": 253
    },
    "26": {
        "chance": 0.002700617283950617,
        "chance+": 0.05984224965706446,
        "chance-": 0.9428583676268862,
        "num_of_totals": 126
    },
    "27": {
        "chance": 0.0012002743484224967,
        "chance+": 0.05714163237311384,
        "chance-": 0.9440586419753088,
        "num_of_totals": 56
    },
    "28": {
        "chance": 0.0004501028806584362,
        "chance+": 0.05594135802469135,
        "chance-": 0.9445087448559671,
        "num_of_totals": 21
    },
    "29": {
        "chance": 0.0001286008230452675,
        "chance+": 0.055491255144032914,
        "chance-": 0.9446373456790124,
        "num_of_totals": 6
    },
    "30": {
        "chance": 2.143347050754458e-05,
        "chance+": 0.05536265432098764,
        "chance-": 0.9446587791495199,
        "num_of_totals": 1
    },
    "5": {
        "chance": 0.000664437585733882,
        "chance+": 0.0553412208504801,
        "chance-": 0.9453232167352538,
        "num_of_totals": 31
    },
    "6": {
        "chance": 0.0028935185185185184,
        "chance+": 0.05467678326474622,
        "chance-": 0.9482167352537723,
        "num_of_totals": 135
    },
    "7": {
        "chance": 0.007823216735253772,
        "chance+": 0.0517832647462277,
        "chance-": 0.956039951989026,
        "num_of_totals": 365
    },
    "8": {
        "chance": 0.016075102880658436,
        "chance+": 0.04396004801097393,
        "chance-": 0.9721150548696844,
        "num_of_totals": 750
    },
    "9": {
        "chance": 0.0278849451303155,
        "chance+": 0.0278849451303155,
        "chance-": 0.9999999999999999,
        "num_of_totals": 1301
    }
}