{
    "1": {
        "chance": 3.814697265625e-06,
        "chance+": 1.0,
        "chance-": 3.814697265625e-06,
        "num_of_totals": 1
    },
    "2": {
        "chance": 0.000240325927734375,
        "chance+": 0.9999961853027344,
        "chance-": 0.000244140625,
        "num_of_totals": 63
    },
    "3": {
        "chance": 0.002536773681640625,
        "chance+": 0.999755859375,
        "chance-": 0.002780914306640625,
        "num_of_totals": 665
    },
    "4": {
        "chance": 0.012844085693359375,
        "chance+": 0.9972190856933594,
        "chance-": 0.015625,
        "num_of_totals": 3367
    },
    "5": {
        "chance": 0.043979644775390625,
        "chance+": 0.984375,
        "chance-": 0.059604644775390625,
        "num_of_totals": 11529
    },
    "6": {
        "chance": 0.11837387084960938,
        "chance+": 0.9403953552246094,
        "chance-": 0.177978515625,
        "num_of_totals": 31031
    },
    "7": {
        "chance": 0.2708168029785156,
        "chance+": 0.822021484375,
        "chance-": 0.4487953186035156,
        "num_of_totals": 70993
    },
    "8": {
        "chance": 0.5512046813964844,
        "chance+": 0.5512046813964844,
        "chance-": 1.0,
        "num_of_totals": 144495
    }
}