{
    "10": {
        "chance": 0.043956756591796875,
        "chance+": 1.0,
        "chance-": 0.043956756591796875,
        "num_of_totals": 11523
    },
    "11": {
        "chance": 0.07079315185546875,
        "chance+": 0.9560432434082031,
        "chance-": 0.11474990844726562,
        "num_of_totals": 18558
    },
    "12": {
        "chance": 0.11281204223632812,
        "chance+": 0.8852500915527344,
        "chance-": 0.22756195068359375,
        "num_of_totals": 29573
    },
    "13": {
        "chance": 0.154541015625,
        "chance+": 0.7724380493164062,
        "chance-": 0.38210296630859375,
        "num_of_totals": 40512
    },
    "14": {
        "chance": 0.19929122924804688,
        "chance+": 0.6178970336914062,
        "chance-": 0.5813941955566406,
        "num_of_totals": 52243
    },
    "15": {
        "chance": 0.20670318603515625,
        "chance+": 0.4186058044433594,
        "chance-": 0.7880973815917969,
        "num_of_totals": 54186
    },
    "16": {
        "chance": 0.16652297973632812,
        "chance+": 0.21190261840820312,
        "chance-": 0.954620361328125,
        "num_of_totals": 43653
    },
    "2": {
        "chance": 3.814697265625e-06,
        "chance+": 0.045379638671875,
        "chance-": 0.9546241760253906,
        "num_of_totals": 1
    },
    "3": {
        "chance": 2.288818359375e-05,
        "chance+": 0.045375823974609375,
        "chance-": 0.9546470642089844,
        "num_of_totals": 6
    },
    "4": {
        "chance": 0.000240325927734375,
        "chance+": 0.045352935791015625,
        "chance-": 0.9548873901367188,
        "num_of_totals": 63
    },
    "5": {
        "chance": 0.000732421875,
        "chance+": 0.04511260986328125,
        "chance-": 0.9556198120117188,
        "num_of_totals": 192
    },
    "6": {
        "chance": 0.002536773681640625,
        "chance+": 0.04438018798828125,
        "chance-": 0.9581565856933594,
        "num_of_totals": 665
    },
    "7": {
        "chance": 0.00556182861328125,
        "chance+": 0.041843414306640625,
        "chance-": 0.9637184143066406,
        "num_of_totals": 1458
    },
    "8": {
        "chance": 0.012844085693359375,
        "chance+": 0.036281585693359375,
        "chance-": 0.9765625,
        "num_of_totals": 3367
    },
    "9": {
        "chance": 0.0234375,
        "chance+": 0.0234375,
        "chance-": 1.0,
        "num_of_totals": 6144
    }
}