{
    "10": {
        "chance": 0.1640625,
        "chance+": 1.0,
        "chance-": 0.1640625,
        "num_of_totals": 21
    },
    "11": {
        "chance": 0.0546875,
        "chance+": 0.8359375,
        "chance-": 0.21875,
        "num_of_totals": 7
    },
    "12": {
        "chance": 0.0078125,
        "chance+": 0.78125,
        "chance-": 0.2265625,
        "num_of_totals": 1
    },
    "6": {
        "chance": 0.0625,
        "chance+": 0.7734375,
        "chance-": 0.2890625,
        "num_of_totals": 8
    },
    "7": {
        "chance": 0.1640625,
        "chance+": 0.7109375,
        "chance-": 0.453125,
        "num_of_totals": 21
    },
    "8": {
        "chance": 0.2734375,
        "chance+": 0.546875,
        "chance-": 0.7265625,
        "num_of_totals": 35
    },
    "9": {
        "chance": 0.2734375,
        "chance+": 0.2734375,
        "chance-": 1.0,
        "num_of_totals": 35
    }
}