{
    "10": {
        "chance": 0.010177326245999086,
        "chance+": 1.0000000000000002,
        "chance-": 0.010177326245999086,
        "num_of_totals": 2849
    },
    "11": {
        "chance": 0.017704046639231825,
        "chance+": 0.9898226737540011,
        "chance-": 0.02788137288523091,
        "num_of_totals": 4956
    },
    "12": {
        "chance": 0.02773491083676269,
        "chance+": 0.9721186271147693,
        "chance-": 0.0556162837219936,
        "num_of_totals": 7764
    },
    "13": {
        "chance": 0.03978409350708734,
        "chance+": 0.9443837162780065,
        "chance-": 0.09540037722908093,
        "num_of_totals": 11137
    },
    "14": {
        "chance": 0.052962105624142664,
        "chance+": 0.9045996227709192,
        "chance-": 0.1483624828532236,
        "num_of_totals": 14826
    },
    "15": {
        "chance": 0.06601508916323731,
        "chance+": 0.8516375171467765,
        "chance-": 0.2143775720164609,
        "num_of_totals": 18480
    },
    "16": {
        "chance": 0.07751771833561957,
        "chance+": 0.7856224279835392,
        "chance-": 0.2918952903520805,
        "num_of_totals": 21700
    },
    "17": {
        "chance": 0.08611968449931413,
        "chance+": 0.7081047096479196,
        "chance-": 0.3780149748513946,
        "num_of_totals": 24108
    },
    "18": {
        "chance": 0.09079932556012803,
        "chance+": 0.6219850251486054,
        "chance-": 0.46881430041152267,
        "num_of_totals": 25418
    },
    "19": {
        "chance": 0.09104581047096479,
        "chance+": 0.5311856995884774,
        "chance-": 0.5598601108824874,
        "num_of_totals": 25487
    },
    "20": {
        "chance": 0.08696987882944673,
        "chance+": 0.44013988911751256,
        "chance-": 0.6468299897119342,
        "num_of_totals": 24346
    },
    "21": {
        "chance": 0.07919310128029264,
        "chance+": 0.3531700102880658,
        "chance-": 0.7260230909922268,
        "num_of_totals": 22169
    },
    "22": {
        "chance": 0.06874071216278006,
        "chance+": 0.2739769090077732,
        "chance-": 0.7947638031550069,
        "num_of_totals": 19243
    },
    "23": {
        "chance": 0.05686299725651577,
        "chance+": 0.20523619684499314,
        "chance-": 0.8516268004115227,
        "num_of_totals": 15918
    },
    "24": {
        "chance": 0.044788808870598995,
        "chance+": 0.14837319958847736,
        "chance-": 0.8964156092821217,
        "num_of_totals": 12538
    },
    "25": {
        "chance": 0.0335326646090535,
        "chance+": 0.10358439071787837,
        "chance-": 0.9299482738911752,
        "num_of_totals": 9387
    },
    "26": {
        "chance": 0.02380544124371285,
        "chance+": 0.07005172610882487,
        "chance-": 0.953753715134888,
        "num_of_totals": 6664
    },
    "27": {
        "chance": 0.015978652263374485,
        "chance+": 0.04624628486511202,
        "chance-": 0.9697323673982625,
        "num_of_totals": 4473
    },
    "28": {
        "chance": 0.010102309099222679,
        "chance+": 0.030267632601737537,
        "chance-": 0.9798346764974852,
        "num_of_totals": 2828
    },
    "29": {
        "chance": 0.005976366026520348,
        "chance+": 0.02016532350251486,
        "chance-": 0.9858110425240055,
        "num_of_totals": 1673
    },
    "30": {
        "chance": 0.003279320987654321,
        "chance+": 0.01418895747599451,
        "chance-": 0.9890903635116598,
        "num_of_totals": 918
    },
    "31": {
        "chance": 0.0016503772290809328,
        "chance+": 0.01090963648834019,
        "chance-": 0.9907407407407407,
        "num_of_totals": 462
    },
    "32": {
        "chance": 0.0007501714677640603,
        "chance+": 0.009259259259259257,
        "chance-": 0.9914909122085047,
        "num_of_totals": 210
    },
    "33": {
        "chance": 0.00030006858710562417,
        "chance+": 0.008509087791495196,
        "chance-": 0.9917909807956103,
        "num_of_totals": 84
    },
    "34": {
        "chance": 0.00010002286236854138,
        "chance+": 0.008209019204389573,
        "chance-": 0.9918910036579789,
        "num_of_totals": 28
    },
    "35": {
        "chance": 2.5005715592135344e-05,
        "chance+": 0.008108996342021032,
        "chance-": 0.991916009373571,
        "num_of_totals": 7
    },
    "36": {
        "chance": 3.5722450845907635e-06,
        "chance+": 0.008083990626428896,
        "chance-": 0.9919195816186557,
        "num_of_totals": 1
    },
    "6": {
        "chance": 0.0001286008230452675,
        "chance+": 0.008080418381344306,
        "chance-": 0.9920481824417009,
        "num_of_totals": 36
    },
    "7": {
        "chance": 0.0006751543209876543,
        "chance+": 0.007951817558299039,
        "chance-": 0.9927233367626885,
        "num_of_totals": 189
    },
    "8": {
        "chance": 0.0021504915409236397,
        "chance+": 0.007276663237311385,
        "chance-": 0.9948738283036122,
        "num_of_totals": 602
    },
    "9": {
        "chance": 0.005126171696387746,
        "chance+": 0.005126171696387746,
        "chance-": 0.9999999999999999,
        "num_of_totals": 1435
    }
}