{
    "10": {
        "chance": 0.02052969250114312,
        "chance+": 1.0,
        "chance-": 0.02052969250114312,
        "num_of_totals": 5747
    },
    "11": {
        "chance": 0.03718349908550526,
        "chance+": 0.9794703074988569,
        "chance-": 0.05771319158664838,
        "num_of_totals": 10409
    },
    "12": {
        "chance": 0.06486839849108368,
        "chance+": 0.9422868084133517,
        "chance-": 0.12258159007773206,
        "num_of_totals": 18159
    },
    "13": {
        "chance": 0.09994784522176497,
        "chance+": 0.8774184099222679,
        "chance-": 0.22252943529949704,
        "num_of_totals": 27979
    },
    "14": {
        "chance": 0.14030707018747143,
        "chance+": 0.777470564700503,
        "chance-": 0.36283650548696844,
        "num_of_totals": 39277
    },
    "15": {
        "chance": 0.17431841563786007,
        "chance+": 0.6371634945130316,
        "chance-": 0.5371549211248285,
        "num_of_totals": 48798
    },
    "16": {
        "chance": 0.19324417009602196,
        "chance+": 0.46284507887517146,
        "chance-": 0.7303990912208504,
        "num_of_totals": 54096
    },
    "17": {
        "chance": 0.15761102537722907,
        "chance+": 0.2696009087791495,
        "chance-": 0.8880101165980795,
        "num_of_totals": 44121
    },
    "18": {
        "chance": 0.09577546296296297,
        "chance+": 0.11198988340192044,
        "chance-": 0.9837855795610424,
        "num_of_totals": 26811
    },
    "3": {
        "chance": 3.5722450845907635e-06,
        "chance+": 0.016214420438957478,
        "chance-": 0.983789151806127,
        "num_of_totals": 1
    },
    "4": {
        "chance": 2.5005715592135344e-05,
        "chance+": 0.016210848193872886,
        "chance-": 0.9838141575217192,
        "num_of_totals": 7
    },
    "5": {
        "chance": 0.00010002286236854138,
        "chance+": 0.01618584247828075,
        "chance-": 0.9839141803840877,
        "num_of_totals": 28
    },
    "6": {
        "chance": 0.000528692272519433,
        "chance+": 0.016085819615912208,
        "chance-": 0.9844428726566071,
        "num_of_totals": 148
    },
    "7": {
        "chance": 0.001675382944673068,
        "chance+": 0.015557127343392776,
        "chance-": 0.9861182556012802,
        "num_of_totals": 469
    },
    "8": {
        "chance": 0.004075931641518061,
        "chance+": 0.013881744398719708,
        "chance-": 0.9901941872427983,
        "num_of_totals": 1141
    },
    "9": {
        "chance": 0.009805812757201646,
        "chance+": 0.009805812757201646,
        "chance-": 0.9999999999999999,
        "num_of_totals": 2745
    }
}