{
    "10": {
        "chance": 0.18991007468373725,
        "chance+": 1.0,
        "chance-": 0.18991007468373725,
        "num_of_totals": 1246
    },
    "11": {
        "chance": 0.1633897271757354,
        "chance+": 0.8100899253162628,
        "chance-": 0.35329980185947263,
        "num_of_totals": 1072
    },
    "12": {
        "chance": 0.12086572168876696,
        "chance+": 0.6467001981405274,
        "chance-": 0.4741655235482396,
        "num_of_totals": 793
    },
    "13": {
        "chance": 0.07681755829903979,
        "chance+": 0.5258344764517604,
        "chance-": 0.5509830818472794,
        "num_of_totals": 504
    },
    "14": {
        "chance": 0.04054260021338211,
        "chance+": 0.44901691815272066,
        "chance-": 0.5915256820606615,
        "num_of_totals": 266
    },
    "15": {
        "chance": 0.017070568510897728,
        "chance+": 0.4084743179393385,
        "chance-": 0.6085962505715592,
        "num_of_totals": 112
    },
    "16": {
        "chance": 0.0054869684499314125,
        "chance+": 0.3914037494284408,
        "chance-": 0.6140832190214907,
        "num_of_totals": 36
    },
    "17": {
        "chance": 0.0012193263222069807,
        "chance+": 0.3859167809785094,
        "chance-": 0.6153025453436977,
        "num_of_totals": 8
    },
    "18": {
        "chance": 0.00015241579027587258,
        "chance+": 0.3846974546563024,
        "chance-": 0.6154549611339736,
        "num_of_totals": 1
    },
    "6": {
        "chance": 0.019661636945587563,
        "chance+": 0.38454503886602653,
        "chance-": 0.6351165980795611,
        "num_of_totals": 129
    },
    "7": {
        "chance": 0.05974698978814205,
        "chance+": 0.364883401920439,
        "chance-": 0.6948635878677032,
        "num_of_totals": 392
    },
    "8": {
        "chance": 0.12589544276787076,
        "chance+": 0.3051364121322969,
        "chance-": 0.820759030635574,
        "num_of_totals": 826
    },
    "9": {
        "chance": 0.17924096936442616,
        "chance+": 0.17924096936442616,
        "chance-": 1.0000000000000002,
        "num_of_totals": 1176
    }
}