{
    "10": {
        "chance": 0.0428466796875,
        "chance+": 1.0,
        "chance-": 0.0428466796875,
        "num_of_totals": 2808
    },
    "11": {
        "chance": 0.01806640625,
        "chance+": 0.9571533203125,
        "chance-": 0.0609130859375,
        "num_of_totals": 1184
    },
    "12": {
        "chance": 0.0063323974609375,
        "chance+": 0.9390869140625,
        "chance-": 0.0672454833984375,
        "num_of_totals": 415
    },
    "13": {
        "chance": 0.0018310546875,
        "chance+": 0.9327545166015625,
        "chance-": 0.0690765380859375,
        "num_of_totals": 120
    },
    "14": {
        "chance": 0.00054931640625,
        "chance+": 0.9309234619140625,
        "chance-": 0.0696258544921875,
        "num_of_totals": 36
    },
    "15": {
        "chance": 0.0001220703125,
        "chance+": 0.9303741455078125,
        "chance-": 0.0697479248046875,
        "num_of_totals": 8
    },
    "16": {
        "chance": 1.52587890625e-05,
        "chance+": 0.9302520751953125,
        "chance-": 0.06976318359375,
        "num_of_totals": 1
    },
    "4": {
        "chance": 0.1138153076171875,
        "chance+": 0.93023681640625,
        "chance-": 0.1835784912109375,
        "num_of_totals": 7459
    },
    "5": {
        "chance": 0.1802978515625,
        "chance+": 0.8164215087890625,
        "chance-": 0.3638763427734375,
        "num_of_totals": 11816
    },
    "6": {
        "chance": 0.22857666015625,
        "chance+": 0.6361236572265625,
        "chance-": 0.5924530029296875,
        "num_of_totals": 14980
    },
    "7": {
        "chance": 0.1949462890625,
        "chance+": 0.4075469970703125,
        "chance-": 0.7873992919921875,
        "num_of_totals": 12776
    },
    "8": {
        "chance": 0.1322784423828125,
        "chance+": 0.2126007080078125,
        "chance-": 0.919677734375,
        "num_of_totals": 8669
    },
    "9": {
        "chance": 0.080322265625,
        "chance+": 0.080322265625,
        "chance-": 1.0,
        "num_of_totals": 5264
    }
}