{
    "2": {
        "chance": 1.52587890625e-05,
        "chance+": 1.0,
        "chance-": 1.52587890625e-05,
        "num_of_totals": 1
    },
    "3": {
        "chance": 0.0001220703125,
        "chance+": 0.9999847412109375,
        "chance-": 0.0001373291015625,
        "num_of_totals": 8
    },
    "4": {
        "chance": 0.0038909912109375,
        "chance+": 0.9998626708984375,
        "chance-": 0.0040283203125,
        "num_of_totals": 255
    },
    "5": {
        "chance": 0.015625,
        "chance+": 0.9959716796875,
        "chance-": 0.0196533203125,
        "num_of_totals": 1024
    },
    "6": {
        "chance": 0.0960845947265625,
        "chance+": 0.9803466796875,
        "chance-": 0.1157379150390625,
        "num_of_totals": 6297
    },
    "7": {
        "chance": 0.2513427734375,
        "chance+": 0.8842620849609375,
        "chance-": 0.3670806884765625,
        "num_of_totals": 16472
    },
    "8": {
        "chance": 0.6329193115234375,
        "chance+": 0.6329193115234375,
        "chance-": 1.0,
        "num_of_totals": 41479
    }
}