{
    "10": {
        "chance": 0.0014920076969974088,
        "chance+": 1.0,
        "chance-": 0.0014920076969974088,
        "num_of_totals": 2506
    },
    "11": {
        "chance": 0.003334095412284713,
        "chance+": 0.9985079923030026,
        "chance-": 0.0048261031092821215,
        "num_of_totals": 5600
    },
    "12": {
        "chance": 0.006484815576893766,
        "chance+": 0.9951738968907179,
        "chance-": 0.011310918686175887,
        "num_of_totals": 10892
    },
    "13": {
        "chance": 0.011315681679622009,
        "chance+": 0.9886890813138242,
        "chance-": 0.022626600365797896,
        "num_of_totals": 19006
    },
    "14": {
        "chance": 0.018040433051364123,
        "chance+": 0.9773733996342021,
        "chance-": 0.04066703341716202,
        "num_of_totals": 30301
    },
    "15": {
        "chance": 0.026639422344154853,
        "chance+": 0.959332966582838,
        "chance-": 0.06730645576131687,
        "num_of_totals": 44744
    },
    "16": {
        "chance": 0.036800078113092514,
        "chance+": 0.9326935442386831,
        "chance-": 0.10410653387440938,
        "num_of_totals": 61810
    },
    "17": {
        "chance": 0.04790261583600061,
        "chance+": 0.8958934661255906,
        "chance-": 0.15200914971041,
        "num_of_totals": 80458
    },
    "18": {
        "chance": 0.05906350022862369,
        "chance+": 0.84799085028959,
        "chance-": 0.21107264993903369,
        "num_of_totals": 99204
    },
    "19": {
        "chance": 0.06924558946806889,
        "chance+": 0.7889273500609663,
        "chance-": 0.28031823940710254,
        "num_of_totals": 116306
    },
    "20": {
        "chance": 0.07741412322816643,
        "chance+": 0.7196817605928973,
        "chance-": 0.357732362635269,
        "num_of_totals": 130026
    },
    "21": {
        "chance": 0.08271712105624143,
        "chance+": 0.6422676373647309,
        "chance-": 0.4404494836915104,
        "num_of_totals": 138933
    },
    "22": {
        "chance": 0.0846110063252553,
        "chance+": 0.5595505163084895,
        "chance-": 0.5250604900167657,
        "num_of_totals": 142114
    },
    "23": {
        "chance": 0.08294395861911294,
        "chance+": 0.4749395099832342,
        "chance-": 0.6080044486358787,
        "num_of_totals": 139314
    },
    "24": {
        "chance": 0.07797615645480872,
        "chance+": 0.3919955513641213,
        "chance-": 0.6859806050906874,
        "num_of_totals": 130970
    },
    "25": {
        "chance": 0.07032083523853071,
        "chance+": 0.3140193949093126,
        "chance-": 0.7563014403292181,
        "num_of_totals": 118112
    },
    "26": {
        "chance": 0.06082699855204999,
        "chance+": 0.24369855967078188,
        "chance-": 0.8171284388812681,
        "num_of_totals": 102166
    },
    "27": {
        "chance": 0.050441291342783114,
        "chance+": 0.1828715611187319,
        "chance-": 0.8675697302240511,
        "num_of_totals": 84722
    },
    "28": {
        "chance": 0.04006927773967383,
        "chance+": 0.1324302697759488,
        "chance-": 0.907639007963725,
        "num_of_totals": 67301
    },
    "29": {
        "chance": 0.03045696159122085,
        "chance+": 0.09236099203627496,
        "chance-": 0.9380959695549458,
        "num_of_totals": 51156
    },
    "30": {
        "chance": 0.02211338782197836,
        "chance+": 0.06190403044505411,
        "chance-": 0.9602093573769241,
        "num_of_totals": 37142
    },
    "31": {
        "chance": 0.015299925697302241,
        "chance+": 0.03979064262307575,
        "chance-": 0.9755092830742264,
        "num_of_totals": 25698
    },
    "32": {
        "chance": 0.01005706066148453,
        "chance+": 0.02449071692577351,
        "chance-": 0.9855663437357108,
        "num_of_totals": 16892
    },
    "33": {
        "chance": 0.006256191891479957,
        "chance+": 0.01443365626428898,
        "chance-": 0.9918225356271908,
        "num_of_totals": 10508
    },
    "34": {
        "chance": 0.003663932708428593,
        "chance+": 0.008177464372809022,
        "chance-": 0.9954864683356194,
        "num_of_totals": 6154
    },
    "35": {
        "chance": 0.0020058156149977135,
        "chance+": 0.0045135316643804295,
        "chance-": 0.9974922839506171,
        "num_of_totals": 3369
    },
    "36": {
        "chance": 0.0010168991007468374,
        "chance+": 0.002507716049382716,
        "chance-": 0.9985091830513639,
        "num_of_totals": 1708
    },
    "37": {
        "chance": 0.0004715363511659808,
        "chance+": 0.0014908169486358785,
        "chance-": 0.99898071940253,
        "num_of_totals": 792
    },
    "38": {
        "chance": 0.000196473479652492,
        "chance+": 0.0010192805974698978,
        "chance-": 0.9991771928821824,
        "num_of_totals": 330
    },
    "39": {
        "chance": 7.144490169181528e-05,
        "chance+": 0.0008228071178174058,
        "chance-": 0.9992486377838743,
        "num_of_totals": 120
    },
    "40": {
        "chance": 2.143347050754458e-05,
        "chance+": 0.0007513622161255905,
        "chance-": 0.9992700712543818,
        "num_of_totals": 36
    },
    "41": {
        "chance": 4.762993446121018e-06,
        "chance+": 0.000729928745618046,
        "chance-": 0.9992748342478279,
        "num_of_totals": 8
    },
    "42": {
        "chance": 5.953741807651273e-07,
        "chance+": 0.000725165752171925,
        "chance-": 0.9992754296220087,
        "num_of_totals": 1
    },
    "7": {
        "chance": 2.441034141137022e-05,
        "chance+": 0.0007245703779911599,
        "chance-": 0.99929983996342,
        "num_of_totals": 41
    },
    "8": {
        "chance": 0.00015003429355281208,
        "chance+": 0.0007001600365797897,
        "chance-": 0.9994498742569727,
        "num_of_totals": 252
    },
    "9": {
        "chance": 0.0005501257430269776,
        "chance+": 0.0005501257430269776,
        "chance-": 0.9999999999999997,
        "num_of_totals": 924
    }
}