{
    "10": {
        "chance": 0.061028242111206055,
        "chance+": 1.0,
        "chance-": 0.061028242111206055,
        "num_of_totals": 1023884
    },
    "11": {
        "chance": 0.04172086715698242,
        "chance+": 0.938971757888794,
        "chance-": 0.10274910926818848,
        "num_of_totals": 699960
    },
    "12": {
        "chance": 0.02627807855606079,
        "chance+": 0.8972508907318115,
        "chance-": 0.12902718782424927,
        "num_of_totals": 440873
    },
    "13": {
        "chance": 0.015695571899414062,
        "chance+": 0.8709728121757507,
        "chance-": 0.14472275972366333,
        "num_of_totals": 263328
    },
    "14": {
        "chance": 0.009073257446289062,
        "chance+": 0.8552772402763367,
        "chance-": 0.1537960171699524,
        "num_of_totals": 152224
    },
    "15": {
        "chance": 0.0048364996910095215,
        "chance+": 0.8462039828300476,
        "chance-": 0.15863251686096191,
        "num_of_totals": 81143
    },
    "16": {
        "chance": 0.0023674964904785156,
        "chance+": 0.8413674831390381,
        "chance-": 0.16100001335144043,
        "num_of_totals": 39720
    },
    "17": {
        "chance": 0.0011513233184814453,
        "chance+": 0.8389999866485596,
        "chance-": 0.16215133666992188,
        "num_of_totals": 19316
    },
    "18": {
        "chance": 0.00048428773880004883,
        "chance+": 0.8378486633300781,
        "chance-": 0.16263562440872192,
        "num_of_totals": 8125
    },
    "19": {
        "chance": 0.00016951560974121094,
        "chance+": 0.8373643755912781,
        "chance-": 0.16280514001846313,
        "num_of_totals": 2844
    },
    "20": {
        "chance": 6.270408630371094e-05,
        "chance+": 0.8371948599815369,
        "chance-": 0.16286784410476685,
        "num_of_totals": 1052
    },
    "21": {
        "chance": 1.6868114471435547e-05,
        "chance+": 0.8371321558952332,
        "chance-": 0.16288471221923828,
        "num_of_totals": 283
    },
    "22": {
        "chance": 2.1457672119140625e-06,
        "chance+": 0.8371152877807617,
        "chance-": 0.1628868579864502,
        "num_of_totals": 36
    },
    "23": {
        "chance": 4.76837158203125e-07,
        "chance+": 0.8371131420135498,
        "chance-": 0.1628873348236084,
        "num_of_totals": 8
    },
    "24": {
        "chance": 5.960464477539063e-08,
        "chance+": 0.8371126651763916,
        "chance-": 0.16288739442825317,
        "num_of_totals": 1
    },
    "3": {
        "chance": 0.06734722852706909,
        "chance+": 0.8371126055717468,
        "chance-": 0.23023462295532227,
        "num_of_totals": 1129899
    },
    "4": {
        "chance": 0.11848235130310059,
        "chance+": 0.7697653770446777,
        "chance-": 0.34871697425842285,
        "num_of_totals": 1987804
    },
    "5": {
        "chance": 0.15526938438415527,
        "chance+": 0.6512830257415771,
        "chance-": 0.5039863586425781,
        "num_of_totals": 2604988
    },
    "6": {
        "chance": 0.15496474504470825,
        "chance+": 0.4960136413574219,
        "chance-": 0.6589511036872864,
        "num_of_totals": 2599877
    },
    "7": {
        "chance": 0.1399669647216797,
        "chance+": 0.3410488963127136,
        "chance-": 0.7989180684089661,
        "num_of_totals": 2348256
    },
    "8": {
        "chance": 0.11414861679077148,
        "chance+": 0.20108193159103394,
        "chance-": 0.9130666851997375,
        "num_of_totals": 1915096
    },
    "9": {
        "chance": 0.08693331480026245,
        "chance+": 0.08693331480026245,
        "chance-": 1.0,
        "num_of_totals": 1458499
    }
}