{
    "10": {
        "chance": 0.01937633752822876,
        "chance+": 1.0,
        "chance-": 0.01937633752822876,
        "num_of_totals": 325081
    },
    "11": {
        "chance": 0.03719186782836914,
        "chance+": 0.9806236624717712,
        "chance-": 0.0565682053565979,
        "num_of_totals": 623976
    },
    "12": {
        "chance": 0.0757870078086853,
        "chance+": 0.9434317946434021,
        "chance-": 0.1323552131652832,
        "num_of_totals": 1271495
    },
    "13": {
        "chance": 0.12567138671875,
        "chance+": 0.8676447868347168,
        "chance-": 0.2580265998840332,
        "num_of_totals": 2108416
    },
    "14": {
        "chance": 0.206243097782135,
        "chance+": 0.7419734001159668,
        "chance-": 0.4642696976661682,
        "num_of_totals": 3460185
    },
    "15": {
        "chance": 0.25921201705932617,
        "chance+": 0.5357303023338318,
        "chance-": 0.7234817147254944,
        "num_of_totals": 4348856
    },
    "16": {
        "chance": 0.2636951804161072,
        "chance+": 0.2765182852745056,
        "chance-": 0.9871768951416016,
        "num_of_totals": 4424071
    },
    "2": {
        "chance": 5.960464477539063e-08,
        "chance+": 0.012823104858398438,
        "chance-": 0.9871769547462463,
        "num_of_totals": 1
    },
    "3": {
        "chance": 4.76837158203125e-07,
        "chance+": 0.012823045253753662,
        "chance-": 0.9871774315834045,
        "num_of_totals": 8
    },
    "4": {
        "chance": 1.519918441772461e-05,
        "chance+": 0.012822568416595459,
        "chance-": 0.9871926307678223,
        "num_of_totals": 255
    },
    "5": {
        "chance": 6.103515625e-05,
        "chance+": 0.012807369232177734,
        "chance-": 0.9872536659240723,
        "num_of_totals": 1024
    },
    "6": {
        "chance": 0.0003758072853088379,
        "chance+": 0.012746334075927734,
        "chance-": 0.9876294732093811,
        "num_of_totals": 6305
    },
    "7": {
        "chance": 0.0010428428649902344,
        "chance+": 0.012370526790618896,
        "chance-": 0.9886723160743713,
        "num_of_totals": 17496
    },
    "8": {
        "chance": 0.003515183925628662,
        "chance+": 0.011327683925628662,
        "chance-": 0.9921875,
        "num_of_totals": 58975
    },
    "9": {
        "chance": 0.0078125,
        "chance+": 0.0078125,
        "chance-": 1.0,
        "num_of_totals": 131072
    }
}