{
    "10": {
        "chance": 0.003515183925628662,
        "chance+": 1.0,
        "chance-": 0.003515183925628662,
        "num_of_totals": 58975
    },
    "11": {
        "chance": 0.0010428428649902344,
        "chance+": 0.9964848160743713,
        "chance-": 0.0045580267906188965,
        "num_of_totals": 17496
    },
    "12": {
        "chance": 0.0003758072853088379,
        "chance+": 0.9954419732093811,
        "chance-": 0.004933834075927734,
        "num_of_totals": 6305
    },
    "13": {
        "chance": 6.103515625e-05,
        "chance+": 0.9950661659240723,
        "chance-": 0.004994869232177734,
        "num_of_totals": 1024
    },
    "14": {
        "chance": 1.519918441772461e-05,
        "chance+": 0.9950051307678223,
        "chance-": 0.005010068416595459,
        "num_of_totals": 255
    },
    "15": {
        "chance": 4.76837158203125e-07,
        "chance+": 0.9949899315834045,
        "chance-": 0.005010545253753662,
        "num_of_totals": 8
    },
    "16": {
        "chance": 5.960464477539063e-08,
        "chance+": 0.9949894547462463,
        "chance-": 0.0050106048583984375,
        "num_of_totals": 1
    },
    "2": {
        "chance": 0.2636951804161072,
        "chance+": 0.9949893951416016,
        "chance-": 0.2687057852745056,
        "num_of_totals": 4424071
    },
    "3": {
        "chance": 0.25921201705932617,
        "chance+": 0.7312942147254944,
        "chance-": 0.5279178023338318,
        "num_of_totals": 4348856
    },
    "4": {
        "chance": 0.206243097782135,
        "chance+": 0.4720821976661682,
        "chance-": 0.7341609001159668,
        "num_of_totals": 3460185
    },
    "5": {
        "chance": 0.12567138671875,
        "chance+": 0.2658390998840332,
        "chance-": 0.8598322868347168,
        "num_of_totals": 2108416
    },
    "6": {
        "chance": 0.0757870078086853,
        "chance+": 0.1401677131652832,
        "chance-": 0.9356192946434021,
        "num_of_totals": 1271495
    },
    "7": {
        "chance": 0.03719186782836914,
        "chance+": 0.0643807053565979,
        "chance-": 0.9728111624717712,
        "num_of_totals": 623976
    },
    "8": {
        "chance": 0.01937633752822876,
        "chance+": 0.02718883752822876,
        "chance-": 0.9921875,
        "num_of_totals": 325081
    },
    "9": {
        "chance": 0.0078125,
        "chance+": 0.0078125,
        "chance-": 1.0,
        "num_of_totals": 131072
    }
}