{
    "10": {
        "chance": 0.045850932598114014,
        "chance+": 1.0,
        "chance-": 0.045850932598114014,
        "num_of_totals": 769251
    },
    "11": {
        "chance": 0.058753013610839844,
        "chance+": 0.954149067401886,
        "chance-": 0.10460394620895386,
        "num_of_totals": 985712
    },
    "12": {
        "chance": 0.06983637809753418,
        "chance+": 0.8953960537910461,
        "chance-": 0.17444032430648804,
        "num_of_totals": 1171660
    },
    "13": {
        "chance": 0.07823574542999268,
        "chance+": 0.825559675693512,
        "chance-": 0.2526760697364807,
        "num_of_totals": 1312578
    },
    "14": {
        "chance": 0.08326756954193115,
        "chance+": 0.7473239302635193,
        "chance-": 0.33594363927841187,
        "num_of_totals": 1396998
    },
    "15": {
        "chance": 0.08468979597091675,
        "chance+": 0.6640563607215881,
        "chance-": 0.4206334352493286,
        "num_of_totals": 1420859
    },
    "16": {
        "chance": 0.0826570987701416,
        "chance+": 0.5793665647506714,
        "chance-": 0.5032905340194702,
        "num_of_totals": 1386756
    },
    "17": {
        "chance": 0.07763993740081787,
        "chance+": 0.4967094659805298,
        "chance-": 0.5809304714202881,
        "num_of_totals": 1302582
    },
    "18": {
        "chance": 0.07034504413604736,
        "chance+": 0.4190695285797119,
        "chance-": 0.6512755155563354,
        "num_of_totals": 1180194
    },
    "19": {
        "chance": 0.06165492534637451,
        "chance+": 0.34872448444366455,
        "chance-": 0.71293044090271,
        "num_of_totals": 1034398
    },
    "20": {
        "chance": 0.052288711071014404,
        "chance+": 0.28706955909729004,
        "chance-": 0.7652191519737244,
        "num_of_totals": 877259
    },
    "21": {
        "chance": 0.04291951656341553,
        "chance+": 0.23478084802627563,
        "chance-": 0.8081386685371399,
        "num_of_totals": 720070
    },
    "22": {
        "chance": 0.03412926197052002,
        "chance+": 0.1918613314628601,
        "chance-": 0.8422679305076599,
        "num_of_totals": 572594
    },
    "23": {
        "chance": 0.02629530429840088,
        "chance+": 0.1577320694923401,
        "chance-": 0.8685632348060608,
        "num_of_totals": 441162
    },
    "24": {
        "chance": 0.01960623264312744,
        "chance+": 0.1314367651939392,
        "chance-": 0.8881694674491882,
        "num_of_totals": 328938
    },
    "25": {
        "chance": 0.01413947343826294,
        "chance+": 0.11183053255081177,
        "chance-": 0.9023089408874512,
        "num_of_totals": 237221
    },
    "26": {
        "chance": 0.009856343269348145,
        "chance+": 0.09769105911254883,
        "chance-": 0.9121652841567993,
        "num_of_totals": 165362
    },
    "27": {
        "chance": 0.006633639335632324,
        "chance+": 0.08783471584320068,
        "chance-": 0.9187989234924316,
        "num_of_totals": 111294
    },
    "28": {
        "chance": 0.00429379940032959,
        "chance+": 0.08120107650756836,
        "chance-": 0.9230927228927612,
        "num_of_totals": 72038
    },
    "29": {
        "chance": 0.0026662349700927734,
        "chance+": 0.07690727710723877,
        "chance-": 0.925758957862854,
        "num_of_totals": 44732
    },
    "30": {
        "chance": 0.0015853047370910645,
        "chance+": 0.074241042137146,
        "chance-": 0.9273442625999451,
        "num_of_totals": 26597
    },
    "31": {
        "chance": 0.0009008646011352539,
        "chance+": 0.07265573740005493,
        "chance-": 0.9282451272010803,
        "num_of_totals": 15114
    },
    "32": {
        "chance": 0.00048530101776123047,
        "chance+": 0.07175487279891968,
        "chance-": 0.9287304282188416,
        "num_of_totals": 8142
    },
    "33": {
        "chance": 0.0002446174621582031,
        "chance+": 0.07126957178115845,
        "chance-": 0.9289750456809998,
        "num_of_totals": 4104
    },
    "34": {
        "chance": 0.00011444091796875,
        "chance+": 0.07102495431900024,
        "chance-": 0.9290894865989685,
        "num_of_totals": 1920
    },
    "35": {
        "chance": 4.941225051879883e-05,
        "chance+": 0.0709105134010315,
        "chance-": 0.9291388988494873,
        "num_of_totals": 829
    },
    "36": {
        "chance": 1.9669532775878906e-05,
        "chance+": 0.0708611011505127,
        "chance-": 0.9291585683822632,
        "num_of_totals": 330
    },
    "37": {
        "chance": 7.152557373046875e-06,
        "chance+": 0.07084143161773682,
        "chance-": 0.9291657209396362,
        "num_of_totals": 120
    },
    "38": {
        "chance": 2.1457672119140625e-06,
        "chance+": 0.07083427906036377,
        "chance-": 0.9291678667068481,
        "num_of_totals": 36
    },
    "39": {
        "chance": 4.76837158203125e-07,
        "chance+": 0.07083213329315186,
        "chance-": 0.9291683435440063,
        "num_of_totals": 8
    },
    "40": {
        "chance": 5.960464477539063e-08,
        "chance+": 0.07083165645599365,
        "chance-": 0.9291684031486511,
        "num_of_totals": 1
    },
    "5": {
        "chance": 0.0012300610542297363,
        "chance+": 0.07083159685134888,
        "chance-": 0.9303984642028809,
        "num_of_totals": 20637
    },
    "6": {
        "chance": 0.004610419273376465,
        "chance+": 0.06960153579711914,
        "chance-": 0.9350088834762573,
        "num_of_totals": 77350
    },
    "7": {
        "chance": 0.0113145112991333,
        "chance+": 0.06499111652374268,
        "chance-": 0.9463233947753906,
        "num_of_totals": 189826
    },
    "8": {
        "chance": 0.02091085910797119,
        "chance+": 0.053676605224609375,
        "chance-": 0.9672342538833618,
        "num_of_totals": 350826
    },
    "9": {
        "chance": 0.032765746116638184,
        "chance+": 0.032765746116638184,
        "chance-": 1.0,
        "num_of_totals": 549718
    }
}