{
    "10": {
        "chance": 0.0703125,
        "chance+": 1.0,
        "chance-": 0.0703125,
        "num_of_totals": 36
    },
    "11": {
        "chance": 0.1640625,
        "chance+": 0.9296875,
        "chance-": 0.234375,
        "num_of_totals": 84
    },
    "12": {
        "chance": 0.24609375,
        "chance+": 0.765625,
        "chance-": 0.48046875,
        "num_of_totals": 126
    },
    "13": {
        "chance": 0.24609375,
        "chance+": 0.51953125,
        "chance-": 0.7265625,
        "num_of_totals": 126
    },
    "14": {
        "chance": 0.1640625,
        "chance+": 0.2734375,
        "chance-": 0.890625,
        "num_of_totals": 84
    },
    "15": {
        "chance": 0.0703125,
        "chance+": 0.109375,
        "chance-": 0.9609375,
        "num_of_totals": 36
    },
    "16": {
        "chance": 0.01953125,
        "chance+": 0.0390625,
        "chance-": 0.98046875,
        "num_of_totals": 10
    },
    "8": {
        "chance": 0.001953125,
        "chance+": 0.01953125,
        "chance-": 0.982421875,
        "num_of_totals": 1
    },
    "9": {
        "chance": 0.017578125,
        "chance+": 0.017578125,
        "chance-": 1.0,
        "num_of_totals": 9
    }
}