{
    "2": {
        "chance": 0.001953125,
        "chance+": 1.0,
        "chance-": 0.001953125,
        "num_of_totals": 1
    },
    "3": {
        "chance": 0.017578125,
        "chance+": 0.998046875,
        "chance-": 0.01953125,
        "num_of_totals": 9
    },
    "4": {
        "chance": 0.98046875,
        "chance+": 0.98046875,
        "chance-": 1.0,
        "num_of_totals": 502
    }
}