{
    "10": {
        "chance": 0.017578125,
        "chance+": 1.0,
        "chance-": 0.017578125,
        "num_of_totals": 9
    },
    "11": {
        "chance": 0.0703125,
        "chance+": 0.982421875,
        "chance-": 0.087890625,
        "num_of_totals": 36
    },
    "12": {
        "chance": 0.1640625,
        "chance+": 0.912109375,
        "chance-": 0.251953125,
        "num_of_totals": 84
    },
    "13": {
        "chance": 0.24609375,
        "chance+": 0.748046875,
        "chance-": 0.498046875,
        "num_of_totals": 126
    },
    "14": {
        "chance": 0.24609375,
        "chance+": 0.501953125,
        "chance-": 0.744140625,
        "num_of_totals": 126
    },
    "15": {
        "chance": 0.1640625,
        "chance+": 0.255859375,
        "chance-": 0.908203125,
        "num_of_totals": 84
    },
    "16": {
        "chance": 0.0703125,
        "chance+": 0.091796875,
        "chance-": 0.978515625,
        "num_of_totals": 36
    },
    "17": {
        "chance": 0.017578125,
        "chance+": 0.021484375,
        "chance-": 0.99609375,
        "num_of_totals": 9
    },
    "18": {
        "chance": 0.001953125,
        "chance+": 0.00390625,
        "chance-": 0.998046875,
        "num_of_totals": 1
    },
    "9": {
        "chance": 0.001953125,
        "chance+": 0.001953125,
        "chance-": 1.0,
        "num_of_totals": 1
    }
}