{
    "10": {
        "chance": 0.007925621094345374,
        "chance+": 1.0,
        "chance-": 0.007925621094345374,
        "num_of_totals": 156
    },
    "11": {
        "chance": 0.021033379058070414,
        "chance+": 0.9920743789056546,
        "chance-": 0.028959000152415787,
        "num_of_totals": 414
    },
    "12": {
        "chance": 0.04481024234110654,
        "chance+": 0.9710409998475842,
        "chance-": 0.07376924249352232,
        "num_of_totals": 882
    },
    "13": {
        "chance": 0.078951379362902,
        "chance+": 0.9262307575064777,
        "chance-": 0.15272062185642432,
        "num_of_totals": 1554
    },
    "14": {
        "chance": 0.11756337956612305,
        "chance+": 0.8472793781435757,
        "chance-": 0.2702840014225474,
        "num_of_totals": 2314
    },
    "15": {
        "chance": 0.15134887974394148,
        "chance+": 0.7297159985774526,
        "chance-": 0.4216328811664889,
        "num_of_totals": 2979
    },
    "16": {
        "chance": 0.17040085352842554,
        "chance+": 0.5783671188335111,
        "chance-": 0.5920337346949145,
        "num_of_totals": 3354
    },
    "17": {
        "chance": 0.16430422191739064,
        "chance+": 0.4079662653050856,
        "chance-": 0.7563379566123052,
        "num_of_totals": 3234
    },
    "18": {
        "chance": 0.12802926383173296,
        "chance+": 0.24366204338769495,
        "chance-": 0.8843672204440381,
        "num_of_totals": 2520
    },
    "19": {
        "chance": 0.07468373723517756,
        "chance+": 0.11563277955596199,
        "chance-": 0.9590509576792157,
        "num_of_totals": 1470
    },
    "20": {
        "chance": 0.029873494894071026,
        "chance+": 0.04094904232078443,
        "chance-": 0.9889244525732866,
        "num_of_totals": 588
    },
    "21": {
        "chance": 0.00828125793832241,
        "chance+": 0.011075547426713407,
        "chance-": 0.9972057105116091,
        "num_of_totals": 163
    },
    "7": {
        "chance": 5.080526342529086e-05,
        "chance+": 0.0027942894883909975,
        "chance-": 0.9972565157750344,
        "num_of_totals": 1
    },
    "8": {
        "chance": 0.0004572473708276177,
        "chance+": 0.0027434842249657067,
        "chance-": 0.997713763145862,
        "num_of_totals": 9
    },
    "9": {
        "chance": 0.002286236854138089,
        "chance+": 0.002286236854138089,
        "chance-": 1.0,
        "num_of_totals": 45
    }
}