{
    "2": {
        "chance": 5.080526342529086e-05,
        "chance+": 1.0,
        "chance-": 5.080526342529086e-05,
        "num_of_totals": 1
    },
    "3": {
        "chance": 0.0004572473708276177,
        "chance+": 0.9999491947365747,
        "chance-": 0.0005080526342529086,
        "num_of_totals": 9
    },
    "4": {
        "chance": 0.02596148961032363,
        "chance+": 0.9994919473657471,
        "chance-": 0.026469542244576538,
        "num_of_totals": 511
    },
    "5": {
        "chance": 0.11659807956104253,
        "chance+": 0.9735304577554235,
        "chance-": 0.14306762180561905,
        "num_of_totals": 2295
    },
    "6": {
        "chance": 0.856932378194381,
        "chance+": 0.856932378194381,
        "chance-": 1.0,
        "num_of_totals": 16867
    }
}