{
    "10": {
        "chance": 0.002655029296875,
        "chance+": 1.0,
        "chance-": 0.002655029296875,
        "num_of_totals": 696
    },
    "11": {
        "chance": 0.00734710693359375,
        "chance+": 0.997344970703125,
        "chance-": 0.01000213623046875,
        "num_of_totals": 1926
    },
    "12": {
        "chance": 0.01618194580078125,
        "chance+": 0.9899978637695312,
        "chance-": 0.02618408203125,
        "num_of_totals": 4242
    },
    "13": {
        "chance": 0.030120849609375,
        "chance+": 0.97381591796875,
        "chance-": 0.056304931640625,
        "num_of_totals": 7896
    },
    "14": {
        "chance": 0.04900360107421875,
        "chance+": 0.943695068359375,
        "chance-": 0.10530853271484375,
        "num_of_totals": 12846
    },
    "15": {
        "chance": 0.07091903686523438,
        "chance+": 0.8946914672851562,
        "chance-": 0.17622756958007812,
        "num_of_totals": 18591
    },
    "16": {
        "chance": 0.09235763549804688,
        "chance+": 0.8237724304199219,
        "chance-": 0.268585205078125,
        "num_of_totals": 24211
    },
    "17": {
        "chance": 0.10919952392578125,
        "chance+": 0.731414794921875,
        "chance-": 0.37778472900390625,
        "num_of_totals": 28626
    },
    "18": {
        "chance": 0.1180572509765625,
        "chance+": 0.6222152709960938,
        "chance-": 0.49584197998046875,
        "num_of_totals": 30948
    },
    "19": {
        "chance": 0.117279052734375,
        "chance+": 0.5041580200195312,
        "chance-": 0.6131210327148438,
        "num_of_totals": 30744
    },
    "20": {
        "chance": 0.10732269287109375,
        "chance+": 0.38687896728515625,
        "chance-": 0.7204437255859375,
        "num_of_totals": 28134
    },
    "21": {
        "chance": 0.09047698974609375,
        "chance+": 0.2795562744140625,
        "chance-": 0.8109207153320312,
        "num_of_totals": 23718
    },
    "22": {
        "chance": 0.07014083862304688,
        "chance+": 0.18907928466796875,
        "chance-": 0.8810615539550781,
        "num_of_totals": 18387
    },
    "23": {
        "chance": 0.049816131591796875,
        "chance+": 0.11893844604492188,
        "chance-": 0.930877685546875,
        "num_of_totals": 13059
    },
    "24": {
        "chance": 0.0322418212890625,
        "chance+": 0.069122314453125,
        "chance-": 0.9631195068359375,
        "num_of_totals": 8452
    },
    "25": {
        "chance": 0.01888275146484375,
        "chance+": 0.0368804931640625,
        "chance-": 0.9820022583007812,
        "num_of_totals": 4950
    },
    "26": {
        "chance": 0.00991058349609375,
        "chance+": 0.01799774169921875,
        "chance-": 0.991912841796875,
        "num_of_totals": 2598
    },
    "27": {
        "chance": 0.00460052490234375,
        "chance+": 0.008087158203125,
        "chance-": 0.9965133666992188,
        "num_of_totals": 1206
    },
    "28": {
        "chance": 0.00185394287109375,
        "chance+": 0.00348663330078125,
        "chance-": 0.9983673095703125,
        "num_of_totals": 486
    },
    "29": {
        "chance": 0.000629425048828125,
        "chance+": 0.0016326904296875,
        "chance-": 0.9989967346191406,
        "num_of_totals": 165
    },
    "30": {
        "chance": 0.000171661376953125,
        "chance+": 0.001003265380859375,
        "chance-": 0.9991683959960938,
        "num_of_totals": 45
    },
    "31": {
        "chance": 3.4332275390625e-05,
        "chance+": 0.00083160400390625,
        "chance-": 0.9992027282714844,
        "num_of_totals": 9
    },
    "32": {
        "chance": 3.814697265625e-06,
        "chance+": 0.000797271728515625,
        "chance-": 0.99920654296875,
        "num_of_totals": 1
    },
    "8": {
        "chance": 0.0001068115234375,
        "chance+": 0.00079345703125,
        "chance-": 0.9993133544921875,
        "num_of_totals": 28
    },
    "9": {
        "chance": 0.0006866455078125,
        "chance+": 0.0006866455078125,
        "chance-": 1.0,
        "num_of_totals": 180
    }
}