{
    "10": {
        "chance": 4.9118369913123e-05,
        "chance+": 0.9999999999999999,
        "chance-": 4.9118369913123e-05,
        "num_of_totals": 495
    },
    "11": {
        "chance": 0.0001277077617741198,
        "chance+": 0.9999508816300867,
        "chance-": 0.0001768261316872428,
        "num_of_totals": 1287
    },
    "12": {
        "chance": 0.00030165625158766447,
        "chance+": 0.9998231738683127,
        "chance-": 0.00047848238327490727,
        "num_of_totals": 3040
    },
    "13": {
        "chance": 0.0006599722793781435,
        "chance+": 0.999521517616725,
        "chance-": 0.0011384546626530508,
        "num_of_totals": 6651
    },
    "14": {
        "chance": 0.0013476294581618656,
        "chance+": 0.9988615453373468,
        "chance-": 0.0024860841208149166,
        "num_of_totals": 13581
    },
    "15": {
        "chance": 0.0025812447607072094,
        "chance+": 0.9975139158791849,
        "chance-": 0.0050673288815221255,
        "num_of_totals": 26013
    },
    "16": {
        "chance": 0.004660886774119799,
        "chance+": 0.9949326711184777,
        "chance-": 0.009728215655641925,
        "num_of_totals": 46971
    },
    "17": {
        "chance": 0.007941100823045267,
        "chance+": 0.9902717843443579,
        "chance-": 0.01766931647868719,
        "num_of_totals": 80028
    },
    "18": {
        "chance": 0.012792308876949652,
        "chance+": 0.9823306835213127,
        "chance-": 0.030461625355636845,
        "num_of_totals": 128917
    },
    "19": {
        "chance": 0.01953928755144033,
        "chance+": 0.9695383746443631,
        "chance-": 0.05000091290707717,
        "num_of_totals": 196911
    },
    "20": {
        "chance": 0.028378808013260173,
        "chance+": 0.9499990870929228,
        "chance-": 0.07837972092033735,
        "num_of_totals": 285993
    },
    "21": {
        "chance": 0.03928130001143119,
        "chance+": 0.9216202790796626,
        "chance-": 0.11766102093176853,
        "num_of_totals": 395865
    },
    "22": {
        "chance": 0.05187257087334248,
        "chance+": 0.8823389790682314,
        "chance-": 0.16953359180511102,
        "num_of_totals": 522756
    },
    "23": {
        "chance": 0.06534707933241884,
        "chance+": 0.8304664081948889,
        "chance-": 0.23488067113752986,
        "num_of_totals": 658548
    },
    "24": {
        "chance": 0.07846059257989128,
        "chance+": 0.7651193288624701,
        "chance-": 0.31334126371742116,
        "num_of_totals": 790702
    },
    "25": {
        "chance": 0.08958029692501143,
        "chance+": 0.6866587362825789,
        "chance-": 0.40292156064243256,
        "num_of_totals": 902763
    },
    "26": {
        "chance": 0.09714809813671696,
        "chance+": 0.5970784393575674,
        "chance-": 0.5000696587791496,
        "num_of_totals": 979029
    },
    "27": {
        "chance": 0.09987997256515775,
        "chance+": 0.49993034122085045,
        "chance-": 0.5999496313443073,
        "num_of_totals": 1006560
    },
    "28": {
        "chance": 0.0969632344535894,
        "chance+": 0.4000503686556927,
        "chance-": 0.6969128657978967,
        "num_of_totals": 977166
    },
    "29": {
        "chance": 0.08822016460905349,
        "chance+": 0.3030871342021033,
        "chance-": 0.7851330304069501,
        "num_of_totals": 889056
    },
    "30": {
        "chance": 0.07441949032794798,
        "chance+": 0.21486696959304985,
        "chance-": 0.8595525207348982,
        "num_of_totals": 749977
    },
    "31": {
        "chance": 0.057455096879286696,
        "chance+": 0.14044747926510187,
        "chance-": 0.9170076176141849,
        "num_of_totals": 579015
    },
    "32": {
        "chance": 0.04013774577046182,
        "chance+": 0.08299238238581517,
        "chance-": 0.9571453633846467,
        "num_of_totals": 404496
    },
    "33": {
        "chance": 0.024630629858253317,
        "chance+": 0.04285463661535335,
        "chance-": 0.9817759932429,
        "num_of_totals": 248220
    },
    "34": {
        "chance": 0.012452846364883401,
        "chance+": 0.018224006757100036,
        "chance-": 0.9942288396077834,
        "num_of_totals": 125496
    },
    "35": {
        "chance": 0.0046135545267489714,
        "chance+": 0.005771160392216634,
        "chance-": 0.9988423941345324,
        "num_of_totals": 46494
    },
    "36": {
        "chance": 0.0011357754788396078,
        "chance+": 0.0011576058654676625,
        "chance-": 0.9999781696133719,
        "num_of_totals": 11446
    },
    "6": {
        "chance": 9.92290301275212e-08,
        "chance+": 2.1830386628054668e-05,
        "chance-": 0.999978268842402,
        "num_of_totals": 1
    },
    "7": {
        "chance": 8.930612711476909e-07,
        "chance+": 2.1731157597927146e-05,
        "chance-": 0.9999791619036732,
        "num_of_totals": 9
    },
    "8": {
        "chance": 4.465306355738455e-06,
        "chance+": 2.0838096326779455e-05,
        "chance-": 0.999983627210029,
        "num_of_totals": 45
    },
    "9": {
        "chance": 1.6372789971041e-05,
        "chance+": 1.6372789971041e-05,
        "chance-": 1.0,
        "num_of_totals": 165
    }
}