{
    "10": {
        "chance": 0.09903126667047706,
        "chance+": 1.0000000000000002,
        "chance-": 0.09903126667047706,
        "num_of_totals": 998007
    },
    "11": {
        "chance": 0.06888270890489255,
        "chance+": 0.9009687333295231,
        "chance-": 0.1679139755753696,
        "num_of_totals": 694179
    },
    "12": {
        "chance": 0.045017829472133314,
        "chance+": 0.8320860244246305,
        "chance-": 0.21293180504750292,
        "num_of_totals": 453676
    },
    "13": {
        "chance": 0.027452405787989635,
        "chance+": 0.7870681949524972,
        "chance-": 0.24038421083549255,
        "num_of_totals": 276657
    },
    "14": {
        "chance": 0.015561592649748514,
        "chance+": 0.7596157891645076,
        "chance-": 0.25594580348524104,
        "num_of_totals": 156825
    },
    "15": {
        "chance": 0.00814680260249962,
        "chance+": 0.744054196514759,
        "chance-": 0.26409260608774066,
        "num_of_totals": 82101
    },
    "16": {
        "chance": 0.0039006931743128586,
        "chance+": 0.7359073939122593,
        "chance-": 0.2679932992620535,
        "num_of_totals": 39310
    },
    "17": {
        "chance": 0.0017173568244170097,
        "chance+": 0.7320067007379465,
        "chance-": 0.2697106560864705,
        "num_of_totals": 17307
    },
    "18": {
        "chance": 0.0007254634392623076,
        "chance+": 0.7302893439135295,
        "chance-": 0.2704361195257328,
        "num_of_totals": 7311
    },
    "19": {
        "chance": 0.0002607738911751257,
        "chance+": 0.7295638804742672,
        "chance-": 0.27069689341690795,
        "num_of_totals": 2628
    },
    "20": {
        "chance": 7.452100162576844e-05,
        "chance+": 0.729303106583092,
        "chance-": 0.2707714144185337,
        "num_of_totals": 751
    },
    "21": {
        "chance": 1.6372789971041e-05,
        "chance+": 0.7292285855814663,
        "chance-": 0.2707877872085047,
        "num_of_totals": 165
    },
    "22": {
        "chance": 4.465306355738455e-06,
        "chance+": 0.7292122127914953,
        "chance-": 0.27079225251486044,
        "num_of_totals": 45
    },
    "23": {
        "chance": 8.930612711476909e-07,
        "chance+": 0.7292077474851395,
        "chance-": 0.2707931455761316,
        "num_of_totals": 9
    },
    "24": {
        "chance": 9.92290301275212e-08,
        "chance+": 0.7292068544238683,
        "chance-": 0.2707932448051617,
        "num_of_totals": 1
    },
    "4": {
        "chance": 0.04802149221409338,
        "chance+": 0.7292067551948382,
        "chance-": 0.3188147370192551,
        "num_of_totals": 483946
    },
    "5": {
        "chance": 0.09609696502057613,
        "chance+": 0.6811852629807449,
        "chance-": 0.41491170203983124,
        "num_of_totals": 968436
    },
    "6": {
        "chance": 0.14619532083523853,
        "chance+": 0.5850882979601687,
        "chance-": 0.5611070228750697,
        "num_of_totals": 1473312
    },
    "7": {
        "chance": 0.16058283560051823,
        "chance+": 0.43889297712493014,
        "chance-": 0.721689858475588,
        "num_of_totals": 1618305
    },
    "8": {
        "chance": 0.15043210273459331,
        "chance+": 0.2783101415244119,
        "chance-": 0.8721219612101813,
        "num_of_totals": 1516009
    },
    "9": {
        "chance": 0.12787803878981863,
        "chance+": 0.12787803878981863,
        "chance-": 0.9999999999999999,
        "num_of_totals": 1288716
    }
}