{
    "1": {
        "chance": 7.450580596923828e-09,
        "chance+": 1.0,
        "chance-": 7.450580596923828e-09,
        "num_of_totals": 1
    },
    "2": {
        "chance": 3.807246685028076e-06,
        "chance+": 0.9999999925494194,
        "chance-": 3.814697265625e-06,
        "num_of_totals": 511
    },
    "3": {
        "chance": 0.0001428350806236267,
        "chance+": 0.9999961853027344,
        "chance-": 0.0001466497778892517,
        "num_of_totals": 19171
    },
    "4": {
        "chance": 0.0018064752221107483,
        "chance+": 0.9998533502221107,
        "chance-": 0.001953125,
        "num_of_totals": 242461
    },
    "5": {
        "chance": 0.012598790228366852,
        "chance+": 0.998046875,
        "chance-": 0.014551915228366852,
        "num_of_totals": 1690981
    },
    "6": {
        "chance": 0.06053277105093002,
        "chance+": 0.9854480847716331,
        "chance-": 0.07508468627929688,
        "num_of_totals": 8124571
    },
    "7": {
        "chance": 0.2255731150507927,
        "chance+": 0.9249153137207031,
        "chance-": 0.30065780133008957,
        "num_of_totals": 30275911
    },
    "8": {
        "chance": 0.6993421986699104,
        "chance+": 0.6993421986699104,
        "chance-": 1.0,
        "num_of_totals": 93864121
    }
}