{
    "10": {
        "chance": 0.0647394135594368,
        "chance+": 1.0,
        "chance-": 0.0647394135594368,
        "num_of_totals": 8689177
    },
    "11": {
        "chance": 0.07769688963890076,
        "chance+": 0.9352605864405632,
        "chance-": 0.14243630319833755,
        "num_of_totals": 10428300
    },
    "12": {
        "chance": 0.0864158570766449,
        "chance+": 0.8575636968016624,
        "chance-": 0.22885216027498245,
        "num_of_totals": 11598540
    },
    "13": {
        "chance": 0.09060276299715042,
        "chance+": 0.7711478397250175,
        "chance-": 0.3194549232721329,
        "num_of_totals": 12160497
    },
    "14": {
        "chance": 0.09030548483133316,
        "chance+": 0.6805450767278671,
        "chance-": 0.40976040810346603,
        "num_of_totals": 12120597
    },
    "15": {
        "chance": 0.08604864776134491,
        "chance+": 0.590239591896534,
        "chance-": 0.49580905586481094,
        "num_of_totals": 11549254
    },
    "16": {
        "chance": 0.0786837637424469,
        "chance+": 0.5041909441351891,
        "chance-": 0.5744928196072578,
        "num_of_totals": 10560756
    },
    "17": {
        "chance": 0.06922345608472824,
        "chance+": 0.42550718039274216,
        "chance-": 0.6437162756919861,
        "num_of_totals": 9291015
    },
    "18": {
        "chance": 0.05872734636068344,
        "chance+": 0.3562837243080139,
        "chance-": 0.7024436220526695,
        "num_of_totals": 7882251
    },
    "19": {
        "chance": 0.048213087022304535,
        "chance+": 0.2975563779473305,
        "chance-": 0.7506567090749741,
        "num_of_totals": 6471051
    },
    "20": {
        "chance": 0.03829064220190048,
        "chance+": 0.24934329092502594,
        "chance-": 0.7889473512768745,
        "num_of_totals": 5139283
    },
    "21": {
        "chance": 0.029414154589176178,
        "chance+": 0.21105264872312546,
        "chance-": 0.8183615058660507,
        "num_of_totals": 3947901
    },
    "22": {
        "chance": 0.021875806152820587,
        "chance+": 0.18163849413394928,
        "chance-": 0.8402373120188713,
        "num_of_totals": 2936121
    },
    "23": {
        "chance": 0.015755899250507355,
        "chance+": 0.1597626879811287,
        "chance-": 0.8559932112693787,
        "num_of_totals": 2114721
    },
    "24": {
        "chance": 0.010973431169986725,
        "chance+": 0.14400678873062134,
        "chance-": 0.8669666424393654,
        "num_of_totals": 1472829
    },
    "25": {
        "chance": 0.007384084165096283,
        "chance+": 0.1330333575606346,
        "chance-": 0.8743507266044617,
        "num_of_totals": 991075
    },
    "26": {
        "chance": 0.004797600209712982,
        "chance+": 0.12564927339553833,
        "chance-": 0.8791483268141747,
        "num_of_totals": 643923
    },
    "27": {
        "chance": 0.003006063401699066,
        "chance+": 0.12085167318582535,
        "chance-": 0.8821543902158737,
        "num_of_totals": 403467
    },
    "28": {
        "chance": 0.0018059536814689636,
        "chance+": 0.11784560978412628,
        "chance-": 0.8839603438973427,
        "num_of_totals": 242391
    },
    "29": {
        "chance": 0.0010377466678619385,
        "chance+": 0.11603965610265732,
        "chance-": 0.8849980905652046,
        "num_of_totals": 139284
    },
    "30": {
        "chance": 0.0005696862936019897,
        "chance+": 0.11500190943479538,
        "chance-": 0.8855677768588066,
        "num_of_totals": 76462
    },
    "31": {
        "chance": 0.0002984181046485901,
        "chance+": 0.11443222314119339,
        "chance-": 0.8858661949634552,
        "num_of_totals": 40053
    },
    "32": {
        "chance": 0.0001475885510444641,
        "chance+": 0.1141338050365448,
        "chance-": 0.8860137835144997,
        "num_of_totals": 19809
    },
    "33": {
        "chance": 6.732344627380371e-05,
        "chance+": 0.11398621648550034,
        "chance-": 0.8860811069607735,
        "num_of_totals": 9036
    },
    "34": {
        "chance": 2.79843807220459e-05,
        "chance+": 0.11391889303922653,
        "chance-": 0.8861090913414955,
        "num_of_totals": 3756
    },
    "35": {
        "chance": 1.0557472705841064e-05,
        "chance+": 0.11389090865850449,
        "chance-": 0.8861196488142014,
        "num_of_totals": 1417
    },
    "36": {
        "chance": 3.688037395477295e-06,
        "chance+": 0.11388035118579865,
        "chance-": 0.8861233368515968,
        "num_of_totals": 495
    },
    "37": {
        "chance": 1.2293457984924316e-06,
        "chance+": 0.11387666314840317,
        "chance-": 0.8861245661973953,
        "num_of_totals": 165
    },
    "38": {
        "chance": 3.3527612686157227e-07,
        "chance+": 0.11387543380260468,
        "chance-": 0.8861249014735222,
        "num_of_totals": 45
    },
    "39": {
        "chance": 6.705522537231445e-08,
        "chance+": 0.11387509852647781,
        "chance-": 0.8861249685287476,
        "num_of_totals": 9
    },
    "40": {
        "chance": 7.450580596923828e-09,
        "chance+": 0.11387503147125244,
        "chance-": 0.8861249759793282,
        "num_of_totals": 1
    },
    "5": {
        "chance": 0.002482280135154724,
        "chance+": 0.11387502402067184,
        "chance-": 0.8886072561144829,
        "num_of_totals": 333166
    },
    "6": {
        "chance": 0.008478060364723206,
        "chance+": 0.11139274388551712,
        "chance-": 0.8970853164792061,
        "num_of_totals": 1137906
    },
    "7": {
        "chance": 0.01959751546382904,
        "chance+": 0.10291468352079391,
        "chance-": 0.9166828319430351,
        "num_of_totals": 2630334
    },
    "8": {
        "chance": 0.03384585678577423,
        "chance+": 0.08331716805696487,
        "chance-": 0.9505286887288094,
        "num_of_totals": 4542714
    },
    "9": {
        "chance": 0.04947131127119064,
        "chance+": 0.04947131127119064,
        "chance-": 1.0,
        "num_of_totals": 6639927
    }
}