{
    "0": [
        "10d4 k9l chance",
        "10d4 k9l chance+",
        "10d4 k9l chance-",
        "10d4 k8l chance",
        "10d4 k8l chance+",
        "10d4 k8l chance-",
        "10d4 k7l chance",
        "10d4 k7l chance+",
        "10d4 k7l chance-",
        "10d4 k6l chance",
        "10d4 k6l chance+",
        "10d4 k6l chance-",
        "10d4 k5l chance",
        "10d4 k5l chance+",
        "10d4 k5l chance-",
        "10d4 k4l chance",
        "10d4 k4l chance+",
        "10d4 k4l chance-",
        "10d4 k3l chance",
        "10d4 k3l chance+",
        "10d4 k3l chance-",
        "10d4 k2l chance",
        "10d4 k2l chance+",
        "10d4 k2l chance-",
        "10d4 k1l chance",
        "10d4 k1l chance+",
        "10d4 k1l chance-"
    ],
    "1": [
        0.9436864852905273,
        1.0,
        0.9436864852905273
    ],
    "10": [
        0.00021457672119140625,
        1.0,
        0.00021457672119140625,
        0.0074100494384765625,
        1.0,
        0.0074100494384765625,
        0.06488800048828125,
        1.0,
        0.06488800048828125,
        0.15994548797607422,
        1.0,
        0.15994548797607422,
        0.10567188262939453,
        1.0,
        0.10567188262939453,
        0.015888214111328125,
        1.0,
        0.015888214111328125,
        5.245208740234375e-05,
        1.0,
        5.245208740234375e-05
    ],
    "11": [
        0.0009298324584960938,
        0.9997854232788086,
        0.0011444091796875,
        0.017978668212890625,
        0.9925899505615234,
        0.025388717651367188,
        0.09588432312011719,
        0.9351119995117188,
        0.16077232360839844,
        0.1509571075439453,
        0.8400545120239258,
        0.31090259552001953,
        0.06653308868408203,
        0.8943281173706055,
        0.17220497131347656,
        0.0052165985107421875,
        0.9841117858886719,
        0.021104812622070312,
        9.5367431640625e-06,
        0.9999475479125977,
        6.198883056640625e-05
    ],
    "12": [
        0.0028753280639648438,
        0.9988555908203125,
        0.004019737243652344,
        0.03444671630859375,
        0.9746112823486328,
        0.05983543395996094,
        0.12029170989990234,
        0.8392276763916016,
        0.2810640335083008,
        0.12879467010498047,
        0.6890974044799805,
        0.439697265625,
        0.036678314208984375,
        0.8277950286865234,
        0.20888328552246094,
        0.0012807846069335938,
        0.9788951873779297,
        0.022385597229003906,
        9.5367431640625e-07,
        0.9999380111694336,
        6.29425048828125e-05
    ],
    "13": [
        0.007049560546875,
        0.9959802627563477,
        0.011069297790527344,
        0.055789947509765625,
        0.9401645660400391,
        0.11562538146972656,
        0.13417434692382812,
        0.7189359664916992,
        0.4152383804321289,
        0.09871673583984375,
        0.560302734375,
        0.5384140014648438,
        0.01693248748779297,
        0.7911167144775391,
        0.2258157730102539,
        0.000209808349609375,
        0.9776144027709961,
        0.02259540557861328
    ],
    "14": [
        0.014562606811523438,
        0.9889307022094727,
        0.02563190460205078,
        0.07947635650634766,
        0.8843746185302734,
        0.19510173797607422,
        0.13448810577392578,
        0.5847616195678711,
        0.5497264862060547,
        0.06665897369384766,
        0.46158599853515625,
        0.6050729751586914,
        0.006489753723144531,
        0.7741842269897461,
        0.23230552673339844,
        5.245208740234375e-05,
        0.9774045944213867,
        0.022647857666015625
    ],
    "15": [
        0.026264190673828125,
        0.9743680953979492,
        0.051896095275878906,
        0.10128974914550781,
        0.8048982620239258,
        0.29639148712158203,
        0.12087821960449219,
        0.4502735137939453,
        0.6706047058105469,
        0.03945350646972656,
        0.3949270248413086,
        0.644526481628418,
        0.0021820068359375,
        0.7676944732666016,
        0.23448753356933594,
        9.5367431640625e-06,
        0.9773521423339844,
        0.022657394409179688
    ],
    "16": [
        0.04218578338623047,
        0.9481039047241211,
        0.09408187866210938,
        0.1163492202758789,
        0.703608512878418,
        0.41274070739746094,
        0.09751510620117188,
        0.3293952941894531,
        0.7681198120117188,
        0.02079486846923828,
        0.35547351837158203,
        0.6653213500976562,
        0.0006723403930664062,
        0.7655124664306641,
        0.23515987396240234,
        9.5367431640625e-07,
        0.9773426055908203,
        0.022658348083496094
    ],
    "17": [
        0.06110382080078125,
        0.9059181213378906,
        0.15518569946289062,
        0.12120437622070312,
        0.5872592926025391,
        0.5339450836181641,
        0.07122516632080078,
        0.23188018798828125,
        0.8393449783325195,
        0.009937286376953125,
        0.33467864990234375,
        0.6752586364746094,
        0.000209808349609375,
        0.7648401260375977,
        0.23536968231201172
    ],
    "18": [
        0.08055782318115234,
        0.8448143005371094,
        0.23574352264404297,
        0.11538505554199219,
        0.46605491638183594,
        0.6493301391601562,
        0.04759025573730469,
        0.16065502166748047,
        0.8869352340698242,
        0.004416465759277344,
        0.3247413635253906,
        0.6796751022338867,
        5.245208740234375e-05,
        0.7646303176879883,
        0.23542213439941406
    ],
    "19": [
        0.09740352630615234,
        0.764256477355957,
        0.3331470489501953,
        0.1011199951171875,
        0.35066986083984375,
        0.7504501342773438,
        0.02937793731689453,
        0.11306476593017578,
        0.9163131713867188,
        0.0018138885498046875,
        0.3203248977661133,
        0.6814889907836914,
        9.5367431640625e-06,
        0.7645778656005859,
        0.23543167114257812
    ],
    "2": [
        0.7559747695922852,
        1.0,
        0.7559747695922852,
        0.055336952209472656,
        0.056313514709472656,
        0.9990234375
    ],
    "20": [
        0.10864734649658203,
        0.6668529510498047,
        0.44179439544677734,
        0.08203983306884766,
        0.24954986572265625,
        0.8324899673461914,
        0.016803741455078125,
        0.08368682861328125,
        0.9331169128417969,
        0.0006723403930664062,
        0.3185110092163086,
        0.6821613311767578,
        9.5367431640625e-07,
        0.7645683288574219,
        0.23543262481689453
    ],
    "21": [
        0.11224937438964844,
        0.5582056045532227,
        0.5540437698364258,
        0.06176948547363281,
        0.1675100326538086,
        0.8942594528198242,
        0.0088653564453125,
        0.06688308715820312,
        0.9419822692871094,
        0.000209808349609375,
        0.3178386688232422,
        0.6823711395263672
    ],
    "22": [
        0.10764312744140625,
        0.4459562301635742,
        0.661686897277832,
        0.043122291564941406,
        0.10574054718017578,
        0.9373817443847656,
        0.004248619079589844,
        0.058017730712890625,
        0.9462308883666992,
        5.245208740234375e-05,
        0.3176288604736328,
        0.6824235916137695
    ],
    "23": [
        0.09585857391357422,
        0.33831310272216797,
        0.7575454711914062,
        0.027790069580078125,
        0.06261825561523438,
        0.9651718139648438,
        0.0018138885498046875,
        0.05376911163330078,
        0.9480447769165039,
        9.5367431640625e-06,
        0.31757640838623047,
        0.6824331283569336
    ],
    "24": [
        0.079193115234375,
        0.24245452880859375,
        0.8367385864257812,
        0.01641845703125,
        0.03482818603515625,
        0.9815902709960938,
        0.0006723403930664062,
        0.051955223083496094,
        0.9487171173095703,
        9.5367431640625e-07,
        0.3175668716430664,
        0.68243408203125
    ],
    "25": [
        0.060563087463378906,
        0.16326141357421875,
        0.8973016738891602,
        0.00881195068359375,
        0.01840972900390625,
        0.9904022216796875,
        0.000209808349609375,
        0.05128288269042969,
        0.9489269256591797
    ],
    "26": [
        0.042736053466796875,
        0.10269832611083984,
        0.940037727355957,
        0.004248619079589844,
        0.0095977783203125,
        0.9946508407592773,
        5.245208740234375e-05,
        0.05107307434082031,
        0.948979377746582
    ],
    "27": [
        0.02770519256591797,
        0.05996227264404297,
        0.967742919921875,
        0.0018138885498046875,
        0.005349159240722656,
        0.996464729309082,
        9.5367431640625e-06,
        0.05102062225341797,
        0.9489889144897461
    ],
    "28": [
        0.01640796661376953,
        0.032257080078125,
        0.9841508865356445,
        0.0006723403930664062,
        0.0035352706909179688,
        0.9971370697021484,
        9.5367431640625e-07,
        0.051011085510253906,
        0.9489898681640625
    ],
    "29": [
        0.00881195068359375,
        0.01584911346435547,
        0.9929628372192383,
        0.000209808349609375,
        0.0028629302978515625,
        0.9973468780517578
    ],
    "3": [
        0.4744071960449219,
        0.9999370574951172,
        0.4744701385498047,
        0.1828289031982422,
        0.24402523040771484,
        0.9388036727905273,
        0.0009756088256835938,
        0.0009765625,
        0.9999990463256836
    ],
    "30": [
        0.004248619079589844,
        0.007037162780761719,
        0.9972114562988281,
        5.245208740234375e-05,
        0.0026531219482421875,
        0.9973993301391602
    ],
    "31": [
        0.0018138885498046875,
        0.002788543701171875,
        0.9990253448486328,
        9.5367431640625e-06,
        0.0026006698608398438,
        0.9974088668823242
    ],
    "32": [
        0.0006723403930664062,
        0.0009746551513671875,
        0.9996976852416992,
        9.5367431640625e-07,
        0.0025911331176757812,
        0.9974098205566406
    ],
    "33": [
        0.000209808349609375,
        0.00030231475830078125,
        0.9999074935913086
    ],
    "34": [
        5.245208740234375e-05,
        9.250640869140625e-05,
        0.9999599456787109
    ],
    "35": [
        9.5367431640625e-06,
        4.00543212890625e-05,
        0.999969482421875
    ],
    "36": [
        9.5367431640625e-07,
        3.0517578125e-05,
        0.9999704360961914
    ],
    "4": [
        0.22412490844726562,
        0.9773416519165039,
        0.24678325653076172,
        0.2705812454223633,
        0.5255298614501953,
        0.745051383972168,
        0.055327415466308594,
        0.061196327209472656,
        0.9941310882568359,
        9.5367431640625e-07,
        9.5367431640625e-07,
        1.0
    ],
    "5": [
        0.07812690734863281,
        0.7645673751831055,
        0.31355953216552734,
        0.23563385009765625,
        0.7532167434692383,
        0.48241710662841797,
        0.1717996597290039,
        0.25494861602783203,
        0.9168510437011719,
        0.0048828125,
        0.0058689117431640625,
        0.9990139007568359
    ],
    "6": [
        0.019727706909179688,
        0.31756591796875,
        0.7021617889404297,
        0.1331806182861328,
        0.6864404678344727,
        0.44674015045166016,
        0.24116992950439453,
        0.517582893371582,
        0.7235870361328125,
        0.061397552490234375,
        0.08314895629882812,
        0.9782485961914062,
        0.0009756088256835938,
        0.0009860992431640625,
        0.9999895095825195
    ],
    "7": [
        0.003505706787109375,
        0.0510101318359375,
        0.9524955749511719,
        0.050708770751953125,
        0.2978382110595703,
        0.7528705596923828,
        0.19698143005371094,
        0.5532598495483398,
        0.6437215805053711,
        0.1606273651123047,
        0.2764129638671875,
        0.8842144012451172,
        0.015816688537597656,
        0.02175140380859375,
        0.9940652847290039,
        9.5367431640625e-06,
        1.049041748046875e-05,
        0.9999990463256836
    ],
    "8": [
        0.000415802001953125,
        0.002590179443359375,
        0.9978256225585938,
        0.013017654418945312,
        0.047504425048828125,
        0.9655132293701172,
        0.10217857360839844,
        0.2471294403076172,
        0.8550491333007812,
        0.20040035247802734,
        0.3562784194946289,
        0.8441219329833984,
        0.07936477661132812,
        0.11578559875488281,
        0.9635791778564453,
        0.004916191101074219,
        0.005934715270996094,
        0.9989814758300781,
        9.5367431640625e-07,
        9.5367431640625e-07,
        1.0
    ],
    "9": [
        2.956390380859375e-05,
        2.956390380859375e-05,
        1.0,
        0.00217437744140625,
        0.00217437744140625,
        1.0,
        0.03448677062988281,
        0.03448677062988281,
        1.0,
        0.14495086669921875,
        0.14495086669921875,
        1.0,
        0.15587806701660156,
        0.15587806701660156,
        1.0,
        0.03642082214355469,
        0.03642082214355469,
        1.0,
        0.001018524169921875,
        0.001018524169921875,
        1.0
    ]
}