{
    "0": [
        "3d6 k2l chance",
        "3d6 k2l chance+",
        "3d6 k2l chance-",
        "3d6 k1l chance",
        "3d6 k1l chance+",
        "3d6 k1l chance-"
    ],
    "1": [
        0.4212962962962963,
        1.0,
        0.4212962962962963
    ],
    "10": [
        0.032407407407407406,
        1.0,
        0.032407407407407406
    ],
    "11": [
        0.013888888888888888,
        0.9675925925925926,
        0.046296296296296294
    ],
    "12": [
        0.004629629629629629,
        0.9537037037037037,
        0.05092592592592592
    ],
    "2": [
        0.07407407407407407,
        0.9490740740740741,
        0.125,
        0.2824074074074074,
        0.5787037037037037,
        0.7037037037037037
    ],
    "3": [
        0.125,
        0.875,
        0.25,
        0.1712962962962963,
        0.2962962962962963,
        0.875
    ],
    "4": [
        0.1574074074074074,
        0.75,
        0.40740740740740744,
        0.08796296296296297,
        0.125,
        0.962962962962963
    ],
    "5": [
        0.16666666666666666,
        0.5925925925925926,
        0.5740740740740741,
        0.032407407407407406,
        0.037037037037037035,
        0.9953703703703705
    ],
    "6": [
        0.1574074074074074,
        0.42592592592592593,
        0.7314814814814815,
        0.004629629629629629,
        0.004629629629629629,
        1.0
    ],
    "7": [
        0.125,
        0.2685185185185185,
        0.8564814814814815
    ],
    "8": [
        0.08796296296296297,
        0.14351851851851852,
        0.9444444444444444
    ],
    "9": [
        0.05555555555555555,
        0.05555555555555555,
        1.0
    ]
}