{
    "0": [
        "4d2 k3l chance",
        "4d2 k3l chance+",
        "4d2 k3l chance-",
        "4d2 k2l chance",
        "4d2 k2l chance+",
        "4d2 k2l chance-",
        "4d2 k1l chance",
        "4d2 k1l chance+",
        "4d2 k1l chance-"
    ],
    "1": [
        0.9375,
        1.0,
        0.9375
    ],
    "2": [
        0.6875,
        1.0,
        0.6875,
        0.0625,
        0.0625,
        1.0
    ],
    "3": [
        0.3125,
        1.0,
        0.3125,
        0.25,
        0.3125,
        0.9375
    ],
    "4": [
        0.375,
        0.6875,
        0.6875,
        0.0625,
        0.0625,
        1.0
    ],
    "5": [
        0.25,
        0.3125,
        0.9375
    ],
    "6": [
        0.0625,
        0.0625,
        1.0
    ]
}