{
    "0": [
        "5d4 k4l chance",
        "5d4 k4l chance+",
        "5d4 k4l chance-",
        "5d4 k3l chance",
        "5d4 k3l chance+",
        "5d4 k3l chance-",
        "5d4 k2l chance",
        "5d4 k2l chance+",
        "5d4 k2l chance-",
        "5d4 k1l chance",
        "5d4 k1l chance+",
        "5d4 k1l chance-"
    ],
    "1": [
        0.7626953125,
        1.0,
        0.7626953125
    ],
    "10": [
        0.1416015625,
        1.0,
        0.1416015625,
        0.0146484375,
        1.0,
        0.0146484375
    ],
    "11": [
        0.1025390625,
        0.8583984375,
        0.244140625,
        0.0048828125,
        0.9853515625,
        0.01953125
    ],
    "12": [
        0.064453125,
        0.755859375,
        0.30859375,
        0.0009765625,
        0.98046875,
        0.0205078125
    ],
    "13": [
        0.0341796875,
        0.69140625,
        0.3427734375
    ],
    "14": [
        0.0146484375,
        0.6572265625,
        0.357421875
    ],
    "15": [
        0.0048828125,
        0.642578125,
        0.3623046875
    ],
    "16": [
        0.0009765625,
        0.6376953125,
        0.36328125
    ],
    "2": [
        0.3671875,
        1.0,
        0.3671875,
        0.2060546875,
        0.2373046875,
        0.96875
    ],
    "3": [
        0.103515625,
        0.9794921875,
        0.1240234375,
        0.3173828125,
        0.6328125,
        0.6845703125,
        0.0302734375,
        0.03125,
        0.9990234375
    ],
    "4": [
        0.015625,
        0.63671875,
        0.37890625,
        0.185546875,
        0.8759765625,
        0.3095703125,
        0.201171875,
        0.3154296875,
        0.8857421875,
        0.0009765625,
        0.0009765625,
        1.0
    ],
    "5": [
        0.048828125,
        0.62109375,
        0.427734375,
        0.2294921875,
        0.6904296875,
        0.5390625,
        0.078125,
        0.1142578125,
        0.9638671875
    ],
    "6": [
        0.09765625,
        0.572265625,
        0.525390625,
        0.1962890625,
        0.4609375,
        0.7353515625,
        0.0302734375,
        0.0361328125,
        0.994140625
    ],
    "7": [
        0.1416015625,
        0.474609375,
        0.6669921875,
        0.1416015625,
        0.2646484375,
        0.876953125,
        0.0048828125,
        0.005859375,
        0.9990234375
    ],
    "8": [
        0.1669921875,
        0.3330078125,
        0.833984375,
        0.0830078125,
        0.123046875,
        0.9599609375,
        0.0009765625,
        0.0009765625,
        1.0
    ],
    "9": [
        0.166015625,
        0.166015625,
        1.0,
        0.0400390625,
        0.0400390625,
        1.0
    ]
}