{
    "0": [
        "7d3 k6l chance",
        "7d3 k6l chance+",
        "7d3 k6l chance-",
        "7d3 k5l chance",
        "7d3 k5l chance+",
        "7d3 k5l chance-",
        "7d3 k4l chance",
        "7d3 k4l chance+",
        "7d3 k4l chance-",
        "7d3 k3l chance",
        "7d3 k3l chance+",
        "7d3 k3l chance-",
        "7d3 k2l chance",
        "7d3 k2l chance+",
        "7d3 k2l chance-",
        "7d3 k1l chance",
        "7d3 k1l chance+",
        "7d3 k1l chance-"
    ],
    "1": [
        0.9414723365340649,
        1.0,
        0.9414723365340649
    ],
    "10": [
        0.16963877457704618,
        1.0,
        0.16963877457704618,
        0.12528577960676726,
        1.0,
        0.12528577960676726,
        0.012802926383173296,
        1.0000000000000002,
        0.012802926383173296
    ],
    "11": [
        0.18244170096021947,
        0.8303612254229539,
        0.3520804755372656,
        0.07361682670324646,
        0.8747142203932328,
        0.19890260631001372,
        0.003200731595793324,
        0.9871970736168268,
        0.01600365797896662
    ],
    "12": [
        0.16369455875628716,
        0.6479195244627344,
        0.5157750342935528,
        0.035208047553726564,
        0.8010973936899863,
        0.23411065386374028,
        0.0004572473708276177,
        0.9839963420210335,
        0.016460905349794237
    ],
    "13": [
        0.12162780064014632,
        0.48422496570644724,
        0.6374028349336991,
        0.012802926383173296,
        0.7658893461362598,
        0.24691358024691357
    ],
    "14": [
        0.07361682670324646,
        0.3625971650663009,
        0.7110196616369455,
        0.003200731595793324,
        0.7530864197530865,
        0.2501143118427069
    ],
    "15": [
        0.035208047553726564,
        0.2889803383630544,
        0.746227709190672,
        0.0004572473708276177,
        0.7498856881572932,
        0.2505715592135345
    ],
    "16": [
        0.012802926383173296,
        0.25377229080932784,
        0.7590306355738453
    ],
    "17": [
        0.003200731595793324,
        0.24096936442615455,
        0.7622313671696387
    ],
    "18": [
        0.0004572473708276177,
        0.23776863283036123,
        0.7626886145404663
    ],
    "2": [
        0.7366255144032922,
        1.0,
        0.7366255144032922,
        0.058070416095107456,
        0.058527663465935076,
        0.9995427526291724
    ],
    "3": [
        0.42935528120713307,
        1.0,
        0.42935528120713307,
        0.20164609053497942,
        0.26337448559670784,
        0.9382716049382716,
        0.0004572473708276177,
        0.0004572473708276177,
        1.0
    ],
    "4": [
        0.17329675354366714,
        0.9835390946502058,
        0.18975765889346138,
        0.29766803840877915,
        0.5706447187928669,
        0.7270233196159122,
        0.058070416095107456,
        0.0617283950617284,
        0.996342021033379
    ],
    "5": [
        0.04526748971193416,
        0.7494284407864655,
        0.2958390489254687,
        0.24005486968449932,
        0.8102423411065387,
        0.4298125285779607,
        0.19204389574759945,
        0.2729766803840878,
        0.9190672153635115,
        0.003200731595793324,
        0.003657978966620942,
        0.9995427526291724
    ],
    "6": [
        0.006858710562414266,
        0.23731138545953362,
        0.7695473251028806,
        0.11202560585276634,
        0.7041609510745314,
        0.407864654778235,
        0.26566072245084593,
        0.5701874714220394,
        0.6954732510288066,
        0.0644718792866941,
        0.08093278463648833,
        0.9835390946502056,
        0.0004572473708276177,
        0.0004572473708276177,
        1.0
    ],
    "7": [
        0.02880658436213992,
        0.23045267489711935,
        0.7983539094650205,
        0.19204389574759945,
        0.592135345221765,
        0.5999085505258345,
        0.18244170096021947,
        0.3045267489711934,
        0.8779149519890261,
        0.012802926383173296,
        0.016460905349794237,
        0.9963420210333789
    ],
    "8": [
        0.07361682670324646,
        0.20164609053497942,
        0.8719707361682669,
        0.21764974851394606,
        0.40009144947416553,
        0.8175582990397805,
        0.08687700045724737,
        0.12208504801097395,
        0.9647919524462735,
        0.003200731595793324,
        0.003657978966620942,
        0.9995427526291722
    ],
    "9": [
        0.12802926383173296,
        0.12802926383173296,
        0.9999999999999999,
        0.18244170096021947,
        0.18244170096021947,
        1.0,
        0.035208047553726564,
        0.035208047553726564,
        1.0,
        0.0004572473708276177,
        0.0004572473708276177,
        0.9999999999999999
    ]
}