{
    "0": [
        "7d8 k6l chance",
        "7d8 k6l chance+",
        "7d8 k6l chance-",
        "7d8 k5l chance",
        "7d8 k5l chance+",
        "7d8 k5l chance-",
        "7d8 k4l chance",
        "7d8 k4l chance+",
        "7d8 k4l chance-",
        "7d8 k3l chance",
        "7d8 k3l chance+",
        "7d8 k3l chance-",
        "7d8 k2l chance",
        "7d8 k2l chance+",
        "7d8 k2l chance-",
        "7d8 k1l chance",
        "7d8 k1l chance+",
        "7d8 k1l chance-"
    ],
    "1": [
        0.6073040962219238,
        1.0,
        0.6073040962219238
    ],
    "10": [
        0.0021996498107910156,
        1.0,
        0.0021996498107910156,
        0.027985095977783203,
        1.0,
        0.027985095977783203,
        0.09733867645263672,
        1.0,
        0.09733867645263672,
        0.07726478576660156,
        1.0,
        0.07726478576660156,
        0.006769657135009766,
        1.0,
        0.006769657135009766
    ],
    "11": [
        0.0040454864501953125,
        0.997800350189209,
        0.006245136260986328,
        0.03857898712158203,
        0.9720149040222168,
        0.06656408309936523,
        0.09957504272460938,
        0.9026613235473633,
        0.1969137191772461,
        0.05721092224121094,
        0.9227352142333984,
        0.1344757080078125,
        0.002433300018310547,
        0.9932303428649902,
        0.009202957153320312
    ],
    "12": [
        0.006776332855224609,
        0.9937548637390137,
        0.013021469116210938,
        0.04938697814941406,
        0.9334359169006348,
        0.1159510612487793,
        0.09670495986938477,
        0.8030862808227539,
        0.29361867904663086,
        0.039363861083984375,
        0.8655242919921875,
        0.17383956909179688,
        0.0009818077087402344,
        0.9907970428466797,
        0.010184764862060547
    ],
    "13": [
        0.010517597198486328,
        0.9869785308837891,
        0.023539066314697266,
        0.05956077575683594,
        0.8840489387512207,
        0.17551183700561523,
        0.08921098709106445,
        0.7063813209533691,
        0.3828296661376953,
        0.02581501007080078,
        0.8261604309082031,
        0.19965457916259766,
        0.000213623046875,
        0.9898152351379395,
        0.010398387908935547
    ],
    "14": [
        0.015320777893066406,
        0.9764609336853027,
        0.03885984420776367,
        0.0682058334350586,
        0.8244881629943848,
        0.24371767044067383,
        0.07863998413085938,
        0.6171703338623047,
        0.4614696502685547,
        0.01620197296142578,
        0.8003454208374023,
        0.21585655212402344,
        6.0558319091796875e-05,
        0.9896016120910645,
        0.010458946228027344
    ],
    "15": [
        0.021135330200195312,
        0.9611401557922363,
        0.059995174407958984,
        0.07462167739868164,
        0.7562823295593262,
        0.31833934783935547,
        0.0664834976196289,
        0.5385303497314453,
        0.5279531478881836,
        0.009510040283203125,
        0.7841434478759766,
        0.22536659240722656,
        3.337860107421875e-06,
        0.9895410537719727,
        0.010462284088134766
    ],
    "16": [
        0.027801036834716797,
        0.940004825592041,
        0.08779621124267578,
        0.07833623886108398,
        0.6816606521606445,
        0.39667558670043945,
        0.05394697189331055,
        0.4720468521118164,
        0.5819001197814941,
        0.0051937103271484375,
        0.7746334075927734,
        0.230560302734375,
        4.76837158203125e-07,
        0.9895377159118652,
        0.010462760925292969
    ],
    "17": [
        0.03504753112792969,
        0.9122037887573242,
        0.12284374237060547,
        0.07915401458740234,
        0.6033244132995605,
        0.4758296012878418,
        0.04203367233276367,
        0.41809988021850586,
        0.6239337921142578,
        0.0027637481689453125,
        0.769439697265625,
        0.2333240509033203
    ],
    "18": [
        0.0425114631652832,
        0.8771562576293945,
        0.16535520553588867,
        0.07715129852294922,
        0.5241703987121582,
        0.552980899810791,
        0.031589508056640625,
        0.3760662078857422,
        0.6555233001708984,
        0.001312255859375,
        0.7666759490966797,
        0.2346363067626953
    ],
    "19": [
        0.04976081848144531,
        0.8346447944641113,
        0.21511602401733398,
        0.07271194458007812,
        0.447019100189209,
        0.6256928443908691,
        0.02277088165283203,
        0.34447669982910156,
        0.6782941818237305,
        0.0005440711975097656,
        0.7653636932373047,
        0.23518037796020508
    ],
    "2": [
        0.21460819244384766,
        0.989537239074707,
        0.22507095336914062,
        0.25921201705932617,
        0.39269590377807617,
        0.86651611328125
    ],
    "20": [
        0.05634307861328125,
        0.784883975982666,
        0.27145910263061523,
        0.0663137435913086,
        0.37430715560913086,
        0.6920065879821777,
        0.015725135803222656,
        0.32170581817626953,
        0.6940193176269531,
        0.00022363662719726562,
        0.7648196220397949,
        0.23540401458740234
    ],
    "21": [
        0.06182050704956055,
        0.7285408973693848,
        0.3332796096801758,
        0.058559417724609375,
        0.30799341201782227,
        0.7505660057067871,
        0.010444164276123047,
        0.3059806823730469,
        0.7044634819030762,
        7.05718994140625e-05,
        0.7645959854125977,
        0.2354745864868164
    ],
    "22": [
        0.06582260131835938,
        0.6667203903198242,
        0.39910221099853516,
        0.05011463165283203,
        0.2494339942932129,
        0.8006806373596191,
        0.0066356658935546875,
        0.29553651809692383,
        0.7110991477966309,
        1.33514404296875e-05,
        0.7645254135131836,
        0.2354879379272461
    ],
    "23": [
        0.06808900833129883,
        0.6008977890014648,
        0.467191219329834,
        0.04156303405761719,
        0.19931936264038086,
        0.8422436714172363,
        0.003988742828369141,
        0.28890085220336914,
        0.715087890625,
        3.337860107421875e-06,
        0.7645120620727539,
        0.23549127578735352
    ],
    "24": [
        0.06848669052124023,
        0.532808780670166,
        0.5356779098510742,
        0.03337860107421875,
        0.15775632858276367,
        0.8756222724914551,
        0.0022735595703125,
        0.284912109375,
        0.7173614501953125,
        4.76837158203125e-07,
        0.7645087242126465,
        0.23549175262451172
    ],
    "25": [
        0.0670175552368164,
        0.4643220901489258,
        0.6026954650878906,
        0.02594900131225586,
        0.12437772750854492,
        0.9015712738037109,
        0.0012249946594238281,
        0.2826385498046875,
        0.7185864448547363
    ],
    "26": [
        0.06382322311401367,
        0.3973045349121094,
        0.6665186882019043,
        0.019516468048095703,
        0.09842872619628906,
        0.9210877418518066,
        0.0006208419799804688,
        0.28141355514526367,
        0.7192072868347168
    ],
    "27": [
        0.059163570404052734,
        0.3334813117980957,
        0.725682258605957,
        0.014185905456542969,
        0.07891225814819336,
        0.9352736473083496,
        0.0002837181091308594,
        0.2807927131652832,
        0.7194910049438477
    ],
    "28": [
        0.05338573455810547,
        0.27431774139404297,
        0.7790679931640625,
        0.009940147399902344,
        0.06472635269165039,
        0.945213794708252,
        0.00011396408081054688,
        0.28050899505615234,
        0.7196049690246582
    ],
    "29": [
        0.046883583068847656,
        0.2209320068359375,
        0.8259515762329102,
        0.006699085235595703,
        0.05478620529174805,
        0.9519128799438477,
        4.00543212890625e-05,
        0.2803950309753418,
        0.7196450233459473
    ],
    "3": [
        0.0463099479675293,
        0.7645082473754883,
        0.281801700592041,
        0.23696470260620117,
        0.7749290466308594,
        0.4620356559753418,
        0.09623098373413086,
        0.13348388671875,
        0.9627470970153809
    ],
    "30": [
        0.040058135986328125,
        0.17404842376708984,
        0.8660097122192383,
        0.004333019256591797,
        0.048087120056152344,
        0.9562458992004395,
        1.33514404296875e-05,
        0.28035497665405273,
        0.719658374786377
    ],
    "31": [
        0.033281803131103516,
        0.13399028778076172,
        0.8992915153503418,
        0.0026836395263671875,
        0.04375410079956055,
        0.9589295387268066,
        3.337860107421875e-06,
        0.28034162521362305,
        0.7196617126464844
    ],
    "32": [
        0.026869773864746094,
        0.1007084846496582,
        0.9261612892150879,
        0.0015821456909179688,
        0.04107046127319336,
        0.9605116844177246,
        4.76837158203125e-07,
        0.2803382873535156,
        0.7196621894836426
    ],
    "33": [
        0.02105855941772461,
        0.07383871078491211,
        0.9472198486328125,
        0.000881195068359375,
        0.03948831558227539,
        0.961392879486084
    ],
    "34": [
        0.01600170135498047,
        0.0527801513671875,
        0.963221549987793,
        0.00046062469482421875,
        0.038607120513916016,
        0.9618535041809082
    ],
    "35": [
        0.011772632598876953,
        0.03677845001220703,
        0.9749941825866699,
        0.00022411346435546875,
        0.0381464958190918,
        0.9620776176452637
    ],
    "36": [
        0.008371829986572266,
        0.025005817413330078,
        0.9833660125732422,
        0.00010013580322265625,
        0.03792238235473633,
        0.9621777534484863
    ],
    "37": [
        0.005741119384765625,
        0.016633987426757812,
        0.9891071319580078,
        4.00543212890625e-05,
        0.03782224655151367,
        0.9622178077697754
    ],
    "38": [
        0.0037851333618164062,
        0.010892868041992188,
        0.9928922653198242,
        1.33514404296875e-05,
        0.03778219223022461,
        0.9622311592102051
    ],
    "39": [
        0.0023899078369140625,
        0.007107734680175781,
        0.9952821731567383,
        3.337860107421875e-06,
        0.03776884078979492,
        0.9622344970703125
    ],
    "4": [
        0.0062389373779296875,
        0.2803378105163574,
        0.7259011268615723,
        0.09043264389038086,
        0.718198299407959,
        0.3722343444824219,
        0.20705795288085938,
        0.5379643440246582,
        0.6690936088562012,
        0.02944040298461914,
        0.03725290298461914,
        0.9921875
    ],
    "40": [
        0.0014386177062988281,
        0.004717826843261719,
        0.9967207908630371,
        4.76837158203125e-07,
        0.0377655029296875,
        0.9622349739074707
    ],
    "41": [
        0.0008211135864257812,
        0.0032792091369628906,
        0.9975419044494629
    ],
    "42": [
        0.0004410743713378906,
        0.0024580955505371094,
        0.9979829788208008
    ],
    "43": [
        0.00022029876708984375,
        0.0020170211791992188,
        0.9982032775878906
    ],
    "44": [
        0.00010013580322265625,
        0.001796722412109375,
        0.9983034133911133
    ],
    "45": [
        4.00543212890625e-05,
        0.0016965866088867188,
        0.9983434677124023
    ],
    "46": [
        1.33514404296875e-05,
        0.0016565322875976562,
        0.998356819152832
    ],
    "47": [
        3.337860107421875e-06,
        0.0016431808471679688,
        0.9983601570129395
    ],
    "48": [
        4.76837158203125e-07,
        0.0016398429870605469,
        0.9983606338500977
    ],
    "5": [
        0.0005145072937011719,
        0.0377650260925293,
        0.9627494812011719,
        0.01844167709350586,
        0.27409887313842773,
        0.7443428039550781,
        0.1278066635131836,
        0.6277656555175781,
        0.5000410079956055,
        0.142059326171875,
        0.33090639114379883,
        0.8111529350280762,
        0.006769657135009766,
        0.0078125,
        0.9989571571350098
    ],
    "6": [
        2.384185791015625e-05,
        0.0016393661499023438,
        0.9983844757080078,
        0.0021195411682128906,
        0.037250518798828125,
        0.9648690223693848,
        0.0367431640625,
        0.2556571960449219,
        0.7810859680175781,
        0.1398000717163086,
        0.49995899200439453,
        0.6398410797119141,
        0.09379768371582031,
        0.18884706497192383,
        0.9049506187438965,
        0.0009818077087402344,
        0.0010428428649902344,
        0.99993896484375
    ],
    "7": [
        0.00013017654418945312,
        0.0016155242919921875,
        0.9985146522521973,
        0.0055408477783203125,
        0.035130977630615234,
        0.9704098701477051,
        0.05609941482543945,
        0.21891403198242188,
        0.8371853828430176,
        0.13746309280395508,
        0.36015892028808594,
        0.7773041725158691,
        0.0519404411315918,
        0.09504938125610352,
        0.9568910598754883,
        6.0558319091796875e-05,
        6.103515625e-05,
        0.9999995231628418
    ],
    "8": [
        0.00042724609375,
        0.0014853477478027344,
        0.9989418983459473,
        0.011008262634277344,
        0.029590129852294922,
        0.9814181327819824,
        0.07425785064697266,
        0.16281461715698242,
        0.9114432334899902,
        0.12186193466186523,
        0.22269582748413086,
        0.8991661071777344,
        0.02943706512451172,
        0.04310894012451172,
        0.986328125,
        4.76837158203125e-07,
        4.76837158203125e-07,
        1.0
    ],
    "9": [
        0.0010581016540527344,
        0.0010581016540527344,
        1.0,
        0.018581867218017578,
        0.018581867218017578,
        1.0,
        0.08855676651000977,
        0.08855676651000977,
        1.0,
        0.10083389282226562,
        0.10083389282226562,
        1.0,
        0.013671875,
        0.013671875,
        1.0
    ]
}