{
    "0": [
        "8d3 k7l chance",
        "8d3 k7l chance+",
        "8d3 k7l chance-",
        "8d3 k6l chance",
        "8d3 k6l chance+",
        "8d3 k6l chance-",
        "8d3 k5l chance",
        "8d3 k5l chance+",
        "8d3 k5l chance-",
        "8d3 k4l chance",
        "8d3 k4l chance+",
        "8d3 k4l chance-",
        "8d3 k3l chance",
        "8d3 k3l chance+",
        "8d3 k3l chance-",
        "8d3 k2l chance",
        "8d3 k2l chance+",
        "8d3 k2l chance-",
        "8d3 k1l chance",
        "8d3 k1l chance+",
        "8d3 k1l chance-"
    ],
    "1": [
        0.9609815576893767,
        1.0,
        0.9609815576893767
    ],
    "10": [
        0.078951379362902,
        1.0,
        0.078951379362902,
        0.18991007468373725,
        1.0,
        0.18991007468373725,
        0.08245694253924707,
        1.0000000000000002,
        0.08245694253924707,
        0.0054869684499314125,
        1.0,
        0.0054869684499314125
    ],
    "11": [
        0.12376162170400853,
        0.921048620637098,
        0.20271300106691054,
        0.1633897271757354,
        0.8100899253162628,
        0.35329980185947263,
        0.04054260021338211,
        0.9175430574607532,
        0.12299954275262917,
        0.0012193263222069807,
        0.9945130315500686,
        0.006706294772138393
    ],
    "12": [
        0.157902758725804,
        0.7972869989330895,
        0.36061575979271454,
        0.12086572168876696,
        0.6467001981405274,
        0.4741655235482396,
        0.017070568510897728,
        0.8770004572473711,
        0.1400701112635269,
        0.00015241579027587258,
        0.9932937052278616,
        0.006858710562414266
    ],
    "13": [
        0.16979119036732204,
        0.6393842402072855,
        0.5304069501600366,
        0.07681755829903979,
        0.5258344764517604,
        0.5509830818472794,
        0.0054869684499314125,
        0.8599298887364734,
        0.1455570797134583
    ],
    "14": [
        0.1550068587105624,
        0.4695930498399634,
        0.685413808870599,
        0.04054260021338211,
        0.44901691815272066,
        0.5915256820606615,
        0.0012193263222069807,
        0.8544429202865419,
        0.14677640603566527
    ],
    "15": [
        0.1194939795762841,
        0.314586191129401,
        0.8049077884468832,
        0.017070568510897728,
        0.4084743179393385,
        0.6085962505715592,
        0.00015241579027587258,
        0.8532235939643349,
        0.14692882182594114
    ],
    "16": [
        0.07681755829903979,
        0.1950922115531169,
        0.881725346745923,
        0.0054869684499314125,
        0.3914037494284408,
        0.6140832190214907
    ],
    "17": [
        0.04054260021338211,
        0.11827465325407713,
        0.922267946959305,
        0.0012193263222069807,
        0.3859167809785094,
        0.6153025453436977
    ],
    "18": [
        0.017070568510897728,
        0.07773205304069503,
        0.9393385154702028,
        0.00015241579027587258,
        0.3846974546563024,
        0.6154549611339736
    ],
    "19": [
        0.0054869684499314125,
        0.0606614845297973,
        0.9448254839201342
    ],
    "2": [
        0.804907788446883,
        1.0,
        0.804907788446883,
        0.038866026520347506,
        0.03901844231062338,
        0.9998475842097242
    ],
    "20": [
        0.0012193263222069807,
        0.055174516079865885,
        0.9460448102423412
    ],
    "21": [
        0.00015241579027587258,
        0.0539551897576589,
        0.9461972260326171
    ],
    "3": [
        0.5317786922725194,
        1.0,
        0.5317786922725194,
        0.15485444292028655,
        0.1950922115531169,
        0.9597622313671696,
        0.00015241579027587258,
        0.00015241579027587258,
        1.0
    ],
    "4": [
        0.25864959609815574,
        0.9931412894375857,
        0.26550830666057,
        0.26886145404663925,
        0.4682213077274806,
        0.8006401463191586,
        0.038866026520347506,
        0.04023776863283036,
        0.9986282578875172
    ],
    "5": [
        0.08794391098917848,
        0.853071178174059,
        0.2348727328151196,
        0.2645938119189148,
        0.73449169333943,
        0.5301021185794847,
        0.15058680079256212,
        0.19935985368084136,
        0.9512269471117207,
        0.0012193263222069807,
        0.0013717421124828533,
        0.9998475842097242
    ],
    "6": [
        0.019661636945587563,
        0.38454503886602653,
        0.6351165980795611,
        0.1600365797896662,
        0.7651272671848804,
        0.3949093126047858,
        0.2517908855357415,
        0.4698978814205152,
        0.7818930041152263,
        0.04191434232586496,
        0.048773052888279225,
        0.9931412894375857,
        0.00015241579027587258,
        0.00015241579027587258,
        1.0
    ],
    "7": [
        0.002591068434689834,
        0.053802773967383026,
        0.948788294467307,
        0.05974698978814205,
        0.364883401920439,
        0.6948635878677032,
        0.23258649596098155,
        0.6050906873952142,
        0.6274958085657674,
        0.1463191586648377,
        0.21810699588477367,
        0.928212162780064,
        0.0054869684499314125,
        0.006858710562414266,
        0.9986282578875172
    ],
    "8": [
        0.012802926383173296,
        0.05121170553269319,
        0.9615912208504802,
        0.12589544276787076,
        0.3051364121322969,
        0.820759030635574,
        0.2219173906416705,
        0.37250419143423263,
        0.8494131992074379,
        0.05471726870903826,
        0.07178783721993598,
        0.9829294314891023,
        0.0012193263222069807,
        0.0013717421124828533,
        0.9998475842097242
    ],
    "9": [
        0.038408779149519894,
        0.038408779149519894,
        1.0,
        0.17924096936442616,
        0.17924096936442616,
        1.0000000000000002,
        0.15058680079256212,
        0.15058680079256212,
        1.0,
        0.017070568510897728,
        0.017070568510897728,
        1.0,
        0.00015241579027587258,
        0.00015241579027587258,
        1.0
    ]
}