{
    "0": [
        "9d3 k8l chance",
        "9d3 k8l chance+",
        "9d3 k8l chance-",
        "9d3 k7l chance",
        "9d3 k7l chance+",
        "9d3 k7l chance-",
        "9d3 k6l chance",
        "9d3 k6l chance+",
        "9d3 k6l chance-",
        "9d3 k5l chance",
        "9d3 k5l chance+",
        "9d3 k5l chance-",
        "9d3 k4l chance",
        "9d3 k4l chance+",
        "9d3 k4l chance-",
        "9d3 k3l chance",
        "9d3 k3l chance+",
        "9d3 k3l chance-",
        "9d3 k2l chance",
        "9d3 k2l chance+",
        "9d3 k2l chance-",
        "9d3 k1l chance",
        "9d3 k1l chance+",
        "9d3 k1l chance-"
    ],
    "1": [
        0.9739877051262511,
        1.0,
        0.9739877051262511
    ],
    "10": [
        0.0188995579942082,
        1.0000000000000002,
        0.0188995579942082,
        0.12802926383173296,
        1.0,
        0.12802926383173296,
        0.18747142203932327,
        1.0,
        0.18747142203932327,
        0.05141492658639435,
        1.0,
        0.05141492658639435,
        0.002286236854138089,
        1.0,
        0.002286236854138089
    ],
    "11": [
        0.04481024234110654,
        0.9811004420057919,
        0.06370980033531473,
        0.16430422191739064,
        0.8719707361682671,
        0.2923334857491236,
        0.13214449016918153,
        0.8125285779606767,
        0.3196159122085048,
        0.021033379058070414,
        0.9485850734136057,
        0.07244830564446476,
        0.0004572473708276177,
        0.9977137631458619,
        0.0027434842249657067
    ],
    "12": [
        0.08108520042676422,
        0.9362901996646854,
        0.14479500076207896,
        0.17040085352842554,
        0.7076665142508765,
        0.46273433927754914,
        0.08128842148046538,
        0.6803840877914952,
        0.4009043336889702,
        0.007925621094345374,
        0.9275516943555352,
        0.08037392673881014,
        5.080526342529086e-05,
        0.9972565157750343,
        0.0027942894883909975
    ],
    "13": [
        0.1194939795762841,
        0.8552049992379211,
        0.26428898033836307,
        0.15134887974394148,
        0.5372656607224509,
        0.6140832190214907,
        0.04481024234110654,
        0.5990956663110298,
        0.44571457603007675,
        0.002286236854138089,
        0.9196260732611898,
        0.08266016359294823
    ],
    "14": [
        0.1490626428898034,
        0.735711019661637,
        0.41335162322816643,
        0.11756337956612305,
        0.38591678097850934,
        0.7316465985876137,
        0.021033379058070414,
        0.5542854239699233,
        0.46674795508814715,
        0.0004572473708276177,
        0.9173398364070517,
        0.08311741096377584
    ],
    "15": [
        0.15988416399939034,
        0.5866483767718336,
        0.5732357872275567,
        0.078951379362902,
        0.2683534014123863,
        0.8105979779505157,
        0.007925621094345374,
        0.5332520449118529,
        0.4746735761824925,
        5.080526342529086e-05,
        0.9168825890362241,
        0.08316821622720114
    ],
    "16": [
        0.14774170604074582,
        0.42676421277244325,
        0.7209774932683026,
        0.04481024234110654,
        0.1894020220494843,
        0.8554082202916222,
        0.002286236854138089,
        0.5253264238175075,
        0.4769598130366306
    ],
    "17": [
        0.11705532693187014,
        0.27902250673169743,
        0.8380328202001728,
        0.021033379058070414,
        0.14459177970837778,
        0.8764415993496927,
        0.0004572473708276177,
        0.5230401869633694,
        0.47741706040745824
    ],
    "18": [
        0.078951379362902,
        0.16196717979982728,
        0.9169841995630748,
        0.007925621094345374,
        0.12355840065030736,
        0.884367220444038,
        5.080526342529086e-05,
        0.5225829395925418,
        0.4774678656708835
    ],
    "19": [
        0.04481024234110654,
        0.08301580043692527,
        0.9617944419041813,
        0.002286236854138089,
        0.11563277955596199,
        0.8866534572981761
    ],
    "2": [
        0.856932378194381,
        1.0,
        0.856932378194381,
        0.02596148961032363,
        0.02601229487374892,
        0.9999491947365747
    ],
    "20": [
        0.021033379058070414,
        0.03820555809581873,
        0.9828278209622517,
        0.0004572473708276177,
        0.1133465427018239,
        0.8871107046690038
    ],
    "21": [
        0.007925621094345374,
        0.01717217903774831,
        0.9907534420565971,
        5.080526342529086e-05,
        0.11288929533099629,
        0.887161509932429
    ],
    "22": [
        0.002286236854138089,
        0.009246557943402936,
        0.9930396789107352
    ],
    "23": [
        0.0004572473708276177,
        0.0069603210892648475,
        0.9934969262815628
    ],
    "24": [
        5.080526342529086e-05,
        0.00650307371843723,
        0.9935477315449881
    ],
    "3": [
        0.6228217243306406,
        1.0,
        0.6228217243306406,
        0.11659807956104253,
        0.14306762180561905,
        0.9735304577554235,
        5.080526342529086e-05,
        5.080526342529086e-05,
        1.0
    ],
    "4": [
        0.349692628156277,
        0.997205710511609,
        0.352486917644668,
        0.23228166438042983,
        0.37717827566935935,
        0.8551033887110705,
        0.02596148961032363,
        0.026469542244576538,
        0.9994919473657471
    ],
    "5": [
        0.14484580602550423,
        0.9168317837727988,
        0.22801402225270537,
        0.26886145404663925,
        0.647513082355332,
        0.6213483716913073,
        0.11476909007773205,
        0.14489661128892953,
        0.9698724787888026,
        0.0004572473708276177,
        0.0005080526342529086,
        0.9999491947365747
    ],
    "6": [
        0.04242239496011787,
        0.5225321343291165,
        0.5198902606310014,
        0.1984453589391861,
        0.7719859777472946,
        0.4264593811918915,
        0.22374638012498094,
        0.37865162830869276,
        0.8450947518162882,
        0.027333231722806484,
        0.03012752121119748,
        0.997205710511609,
        5.080526342529086e-05,
        5.080526342529086e-05,
        1.0
    ],
    "7": [
        0.00828125793832241,
        0.11283849006757099,
        0.8954427678707515,
        0.09602194787379972,
        0.4801097393689986,
        0.6159122085048011,
        0.2496570644718793,
        0.5735406188081085,
        0.6761164456637707,
        0.11294010059442158,
        0.15490524818371182,
        0.9580348524107098,
        0.002286236854138089,
        0.0027942894883909975,
        0.9994919473657471
    ],
    "8": [
        0.0009653000050805264,
        0.0064522684550119384,
        0.9945130315500686,
        0.029873494894071026,
        0.10455723212924858,
        0.9253162627648225,
        0.1728395061728395,
        0.3840877914951989,
        0.7887517146776406,
        0.20667581161408322,
        0.32388355433622923,
        0.8827922572778539,
        0.03403952649494488,
        0.04196514758929025,
        0.9920743789056548,
        0.0004572473708276177,
        0.0005080526342529086,
        0.9999491947365747
    ],
    "9": [
        0.0054869684499314125,
        0.0054869684499314125,
        1.0,
        0.07468373723517756,
        0.07468373723517756,
        1.0,
        0.2112482853223594,
        0.2112482853223594,
        1.0,
        0.11720774272214601,
        0.11720774272214601,
        1.0,
        0.007925621094345374,
        0.007925621094345374,
        1.0000000000000002,
        5.080526342529086e-05,
        5.080526342529086e-05,
        1.0
    ]
}